1615186583|74:df:bf:4c:51:59|54
1615186583|6c:21:a2:44:c4:a6|81
1615186598|da:a1:19:1d:a1:ce|88
1615186598|6c:21:a2:44:c4:a6|76
1615186598|44:5e:cd:b2:3b:41|60
1615186598|48:d2:24:8e:09:8b|92
1615186613|44:5e:cd:b2:3b:41|60
1615186613|6c:21:a2:44:c4:a6|80
1615186613|08:25:25:52:43:e8|77
1615186628|3a:95:f0:73:c4:f7|89
1615186628|da:a1:19:ad:33:d4|83
1615186628|6c:21:a2:44:c4:a6|80
1615186643|74:df:bf:4c:51:59|53
1615186643|6c:21:a2:44:c4:a6|74
1615186658|44:5e:cd:b2:3b:41|66
1615186658|6c:21:a2:44:c4:a6|72
1615186658|74:df:bf:4c:51:59|53
1615186673|6c:21:a2:44:c4:a6|75
1615186688|da:a1:19:98:38:a2|84
1615186688|6c:21:a2:44:c4:a6|81
1615186688|28:e3:47:12:4b:4a|84
1615186703|7e:dc:06:be:d4:52|85
1615186703|74:df:bf:4c:51:59|56
1615186703|00:0c:e7:40:9e:10|82
1615186703|6c:21:a2:44:c4:a6|77
1615186703|da:a1:19:98:38:a2|84
1615186718|86:cb:4b:55:bc:d7|91
1615186718|6c:21:a2:44:c4:a6|81
1615186718|7e:dc:06:be:d4:52|85
1615186733|44:5e:cd:b2:3b:41|59
1615186733|6c:21:a2:44:c4:a6|81
1615186733|86:cb:4b:55:bc:d7|91
1615186748|6c:21:a2:44:c4:a6|82
1615186748|44:5e:cd:b2:3b:41|59
1615186763|fa:7a:75:85:26:3a|88
1615186763|74:df:bf:4c:51:59|49
1615186763|6c:21:a2:44:c4:a6|79
1615186778|6c:21:a2:44:c4:a6|81
1615186778|fa:7a:75:85:26:3a|88
1615186793|6c:21:a2:44:c4:a6|78
1615186793|b0:fc:36:1c:5b:c1|74
1615186808|a2:00:e5:57:fc:97|70
1615186808|6c:21:a2:44:c4:a6|77
1615186823|74:df:bf:4c:51:59|47
1615186823|6c:21:a2:44:c4:a6|79
1615186823|a2:00:e5:57:fc:97|70
1615186838|da:a1:19:a7:91:8e|88
1615186838|48:d2:24:8e:09:8b|92
1615186838|6c:21:a2:44:c4:a6|80
1615186853|da:a1:19:a7:91:8e|88
1615186868|6c:21:a2:44:c4:a6|80
1615186868|da:a1:19:a7:91:8e|88
1615186883|74:df:bf:4c:51:59|42
1615186883|a2:00:e5:57:fc:97|71
1615186883|6c:21:a2:44:c4:a6|80
1615186898|44:5e:cd:b2:3b:41|57
1615186898|da:a1:19:bf:32:84|80
1615186898|48:d2:24:8e:09:8b|93
1615186898|6c:21:a2:44:c4:a6|76
1615186913|6c:21:a2:44:c4:a6|80
1615186913|7e:dc:06:be:d4:52|75
1615186913|a4:c3:f0:c9:2c:cd|55
1615186928|08:25:25:52:43:e8|81
1615186928|3c:f8:62:43:8b:b3|69
1615186928|02:0d:73:bc:1c:5a|90
1615186928|6c:21:a2:44:c4:a6|80
1615186943|ac:5f:3e:f4:e0:3f|64
1615186943|6c:21:a2:44:c4:a6|82
1615186943|74:df:bf:4c:51:59|40
1615186943|08:25:25:52:43:e8|81
1615186958|fa:7a:75:85:26:3a|83
1615186958|6c:21:a2:44:c4:a6|77
1615186958|ac:5f:3e:f4:e0:3f|64
1615186973|6c:21:a2:44:c4:a6|75
1615186973|ac:5f:3e:f4:e0:3f|61
1615186988|6c:21:a2:44:c4:a6|79
1615187003|74:df:bf:4c:51:59|48
1615187003|6c:21:a2:44:c4:a6|79
1615187003|da:a1:19:d4:a0:22|86
1615187018|6c:21:a2:44:c4:a6|83
1615187018|74:df:bf:4c:51:59|48
1615187033|6c:21:a2:44:c4:a6|81
1615187048|6c:21:a2:44:c4:a6|79
1615187063|02:26:8f:1a:2b:32|84
1615187063|da:a1:19:5a:6b:3e|83
1615187063|74:df:bf:4c:51:59|48
1615187063|6c:21:a2:44:c4:a6|76
1615187078|a2:00:e5:57:fc:97|65
1615187078|98:22:ef:7c:81:a9|66
1615187078|da:a1:19:42:d4:ef|83
1615187078|da:a1:19:53:a6:b0|72
1615187078|b4:d5:bd:a7:6f:43|69
1615187078|9e:ad:d4:db:f0:16|74
1615187078|6c:21:a2:44:c4:a6|78
1615187078|02:26:8f:1a:2b:32|84
1615187093|9e:ad:d4:db:f0:16|76
1615187093|ac:5f:3e:f4:e0:3f|67
1615187093|6c:21:a2:44:c4:a6|84
1615187093|a2:00:e5:57:fc:97|67
1615187108|6c:21:a2:44:c4:a6|83
1615187108|9e:ad:d4:db:f0:16|76
1615187123|e2:2d:fd:ef:b0:71|82
1615187123|74:df:bf:4c:51:59|47
1615187123|6c:21:a2:44:c4:a6|79
1615187138|48:d2:24:8e:09:8b|94
1615187138|6c:21:a2:44:c4:a6|76
1615187138|da:a1:19:09:8f:c0|72
1615187138|e2:2d:fd:ef:b0:71|82
1615187153|6c:21:a2:44:c4:a6|79
1615187153|5c:51:4f:bd:06:7d|81
1615187168|da:a1:19:ad:49:73|71
1615187168|6c:21:a2:44:c4:a6|81
1615187183|da:a1:19:03:43:0a|79
1615187183|74:df:bf:4c:51:59|40
1615187183|08:25:25:52:43:e8|72
1615187198|9e:ad:d4:db:f0:16|75
1615187198|6c:21:a2:44:c4:a6|79
1615187198|48:d2:24:8e:09:8b|93
1615187198|70:28:8b:7f:9b:94|60
1615187198|da:a1:19:03:43:0a|79
1615187213|44:5e:cd:b2:3b:41|54
1615187213|6c:21:a2:44:c4:a6|80
1615187213|a4:c3:f0:c9:2c:cd|54
1615187213|9e:ad:d4:db:f0:16|75
1615187228|da:a1:19:d9:7e:e3|84
1615187228|02:97:57:5a:08:59|90
1615187228|66:a2:9b:94:ff:ee|78
1615187228|6c:21:a2:44:c4:a6|77
1615187228|44:5e:cd:b2:3b:41|54
1615187243|7e:dc:06:be:d4:52|75
1615187243|ac:5f:3e:f4:e0:3f|72
1615187243|da:a1:19:04:a2:bb|76
1615187243|70:28:8b:7f:9b:94|69
1615187243|74:df:bf:4c:51:59|45
1615187243|6c:21:a2:44:c4:a6|77
1615187243|da:a1:19:d9:7e:e3|84
1615187258|ac:5f:3e:f4:e0:3f|69
1615187258|6c:21:a2:44:c4:a6|82
1615187258|48:d2:24:8e:09:8b|89
1615187258|70:28:8b:7f:9b:94|74
1615187258|7e:dc:06:be:d4:52|75
1615187273|6c:21:a2:44:c4:a6|82
1615187273|70:28:8b:7f:9b:94|69
1615187273|da:a1:19:41:ec:64|78
1615187273|ac:5f:3e:f4:e0:3f|69
1615187288|6c:21:a2:44:c4:a6|84
1615187303|da:a1:19:18:4f:03|72
1615187303|22:ad:70:5a:f3:28|79
1615187303|74:df:bf:4c:51:59|48
1615187303|6c:21:a2:44:c4:a6|75
1615187318|00:0c:e7:c3:78:76|86
1615187318|6c:21:a2:44:c4:a6|79
1615187318|da:a1:19:a3:87:89|73
1615187318|7e:dc:06:be:d4:52|91
1615187318|da:a1:19:18:4f:03|72
1615187333|da:a1:19:d2:0b:fc|76
1615187333|6c:21:a2:44:c4:a6|81
1615187333|00:0c:e7:c3:78:76|86
1615187348|02:54:23:02:d5:5e|68
1615187348|6c:21:a2:44:c4:a6|79
1615187348|6e:da:00:fc:f7:e8|78
1615187348|fa:7a:75:85:26:3a|73
1615187348|da:a1:19:d2:0b:fc|76
1615187363|fa:7a:75:85:26:3a|83
1615187363|ac:5f:3e:f4:e0:3f|65
1615187363|74:df:bf:4c:51:59|47
1615187363|6c:21:a2:44:c4:a6|84
1615187363|02:54:23:02:d5:5e|68
1615187378|9e:ad:d4:db:f0:16|75
1615187378|98:22:ef:7c:81:a9|68
1615187378|6c:21:a2:44:c4:a6|79
1615187378|ac:5f:3e:f4:e0:3f|56
1615187378|fa:7a:75:85:26:3a|83
1615187393|44:5e:cd:b2:3b:41|56
1615187393|ac:5f:3e:f4:e0:3f|58
1615187393|6c:21:a2:44:c4:a6|76
1615187393|9e:ad:d4:db:f0:16|75
1615187408|fa:7a:75:85:26:3a|79
1615187408|6c:21:a2:44:c4:a6|80
1615187408|44:5e:cd:b2:3b:41|56
1615187423|74:df:bf:4c:51:59|41
1615187423|da:a1:19:8f:3e:47|85
1615187423|6c:21:a2:44:c4:a6|80
1615187438|6c:21:a2:44:c4:a6|84
1615187438|da:a1:19:df:ab:ae|78
1615187438|a2:00:e5:57:fc:97|74
1615187438|74:df:bf:4c:51:59|41
1615187453|44:5e:cd:b2:3b:41|57
1615187453|da:a1:19:fd:64:f9|76
1615187453|6c:21:a2:44:c4:a6|79
1615187468|6c:21:a2:44:c4:a6|80
1615187468|a2:00:e5:57:fc:97|67
1615187468|44:5e:cd:b2:3b:41|57
1615187483|74:df:bf:4c:51:59|40
1615187483|6c:21:a2:44:c4:a6|77
1615187498|da:a1:19:fa:cd:37|76
1615187498|6c:21:a2:44:c4:a6|80
1615187498|74:df:bf:4c:51:59|40
1615187513|6c:21:a2:44:c4:a6|79
1615187528|02:0c:5b:e0:71:d6|74
1615187528|6e:da:00:fc:f7:e8|70
1615187528|fa:7a:75:85:26:3a|84
1615187528|08:25:25:52:43:e8|74
1615187528|6c:21:a2:44:c4:a6|81
1615187543|ac:5f:3e:f4:e0:3f|57
1615187543|44:5e:cd:b2:3b:41|57
1615187543|74:df:bf:4c:51:59|48
1615187543|6c:21:a2:44:c4:a6|80
1615187543|02:0c:5b:e0:71:d6|74
1615187558|be:b1:50:e3:a2:87|76
1615187558|6c:21:a2:44:c4:a6|76
1615187558|ac:5f:3e:f4:e0:3f|61
1615187573|da:a1:19:52:4f:ba|75
1615187573|44:5e:cd:b2:3b:41|57
1615187573|6c:21:a2:44:c4:a6|80
1615187573|be:b1:50:e3:a2:87|76
1615187588|28:e3:47:12:4b:4a|82
1615187588|6c:21:a2:44:c4:a6|82
1615187588|a2:00:e5:57:fc:97|65
1615187588|da:a1:19:52:4f:ba|75
1615187603|6c:21:a2:44:c4:a6|80
1615187603|74:df:bf:4c:51:59|46
1615187603|28:e3:47:12:4b:4a|82
1615187618|da:a1:19:5d:88:87|72
1615187618|48:d2:24:8e:09:8b|91
1615187618|6a:3d:88:fc:24:9e|81
1615187618|48:5f:99:cf:bc:af|74
1615187618|26:c7:30:1e:09:96|88
1615187618|26:79:0f:46:fd:89|87
1615187618|6c:21:a2:44:c4:a6|86
1615187633|da:a1:19:c6:fc:c5|76
1615187633|6c:21:a2:44:c4:a6|77
1615187648|da:a1:19:75:97:0f|79
1615187648|da:a1:19:8b:fd:b1|70
1615187648|6c:21:a2:44:c4:a6|76
1615187648|da:a1:19:c6:fc:c5|76
1615187663|74:df:bf:4c:51:59|42
1615187663|6c:21:a2:44:c4:a6|80
1615187663|da:a1:19:75:97:0f|79
1615187678|da:a1:19:cf:3d:cf|74
1615187678|7c:46:85:d5:4f:9c|93
1615187678|b4:d5:bd:a7:6f:43|62
1615187678|da:a1:19:a0:44:74|68
1615187678|6c:21:a2:44:c4:a6|80
1615187678|74:df:bf:4c:51:59|42
1615187693|08:25:25:52:43:e8|78
1615187693|6c:21:a2:44:c4:a6|82
1615187693|da:a1:19:cf:3d:cf|74
1615187708|da:a1:19:1b:d0:0f|72
1615187708|6c:21:a2:44:c4:a6|81
1615187708|08:25:25:52:43:e8|78
1615187723|74:df:bf:4c:51:59|40
1615187723|6c:21:a2:44:c4:a6|75
1615187723|08:25:25:52:43:e8|76
1615187723|da:a1:19:1b:d0:0f|72
1615187738|9e:ad:d4:db:f0:16|75
1615187738|5c:51:4f:bd:06:7d|80
1615187738|44:5e:cd:b2:3b:41|62
1615187738|6c:21:a2:44:c4:a6|78
1615187738|74:df:bf:4c:51:59|40
1615187753|a2:00:e5:57:fc:97|71
1615187753|b2:4b:e4:22:72:a3|72
1615187753|36:db:2a:88:95:fd|72
1615187753|6c:21:a2:44:c4:a6|81
1615187753|9e:ad:d4:db:f0:16|75
1615187768|6c:21:a2:44:c4:a6|85
1615187768|08:25:25:52:43:e8|78
1615187768|fa:7a:75:85:26:3a|72
1615187768|da:a1:19:42:2d:35|73
1615187768|8a:27:f1:c3:7f:9a|57
1615187768|a2:00:e5:57:fc:97|67
1615187783|74:df:bf:4c:51:59|46
1615187783|a2:00:e5:57:fc:97|70
1615187783|6c:21:a2:44:c4:a6|80
1615187798|a4:c3:f0:c9:2c:cd|55
1615187798|b0:c0:90:b1:9b:ed|93
1615187798|6c:21:a2:44:c4:a6|80
1615187798|74:df:bf:4c:51:59|46
1615187813|da:cc:9d:ec:3e:35|81
1615187813|6c:21:a2:44:c4:a6|78
1615187813|a4:c3:f0:c9:2c:cd|55
1615187828|44:5e:cd:b2:3b:41|55
1615187828|3c:f8:62:43:8b:b3|67
1615187828|da:a1:19:bb:e4:75|74
1615187828|6c:21:a2:44:c4:a6|79
1615187828|da:cc:9d:ec:3e:35|81
1615187843|ac:5f:3e:f4:e0:3f|72
1615187843|6a:ac:db:aa:02:91|82
1615187843|74:df:bf:4c:51:59|49
1615187843|6c:21:a2:44:c4:a6|80
1615187843|44:5e:cd:b2:3b:41|55
1615187858|da:a1:19:8b:36:ee|68
1615187858|da:a1:19:aa:03:a0|70
1615187858|6c:21:a2:44:c4:a6|82
1615187858|ac:5f:3e:f4:e0:3f|69
1615187873|da:a1:19:05:f3:77|73
1615187873|ac:5f:3e:f4:e0:3f|69
1615187873|6c:21:a2:44:c4:a6|80
1615187873|da:a1:19:8b:36:ee|68
1615187888|fa:7a:75:85:26:3a|72
1615187888|6c:21:a2:44:c4:a6|76
1615187888|da:a1:19:05:f3:77|73
1615187903|74:df:bf:4c:51:59|48
1615187903|6c:21:a2:44:c4:a6|80
1615187903|fa:7a:75:85:26:3a|72
1615187918|6c:21:a2:44:c4:a6|80
1615187918|74:df:bf:4c:51:59|48
1615187933|da:a1:19:30:0e:b5|79
1615187933|44:5e:cd:b2:3b:41|54
1615187948|da:a1:19:1e:59:fa|76
1615187948|da:a1:19:b9:d7:44|92
1615187948|44:5e:cd:b2:3b:41|65
1615187948|6c:21:a2:44:c4:a6|80
1615187948|da:a1:19:30:0e:b5|79
1615187963|6e:da:00:fc:f7:e8|66
1615187963|44:5e:cd:b2:3b:41|47
1615187963|74:df:bf:4c:51:59|41
1615187963|6c:21:a2:44:c4:a6|80
1615187963|da:a1:19:1e:59:fa|76
1615187978|48:d2:24:8e:09:8b|94
1615187978|6c:21:a2:44:c4:a6|78
1615187978|6e:da:00:fc:f7:e8|66
1615187993|b6:96:ab:03:6d:e7|92
1615187993|6c:21:a2:44:c4:a6|80
1615188008|02:42:8f:96:13:c3|85
1615188008|fa:7a:75:85:26:3a|78
1615188008|6c:21:a2:44:c4:a6|80
1615188008|b6:96:ab:03:6d:e7|92
1615188023|ac:5f:3e:f4:e0:3f|77
1615188023|6c:21:a2:44:c4:a6|83
1615188023|44:5e:cd:b2:3b:41|57
1615188023|74:df:bf:4c:51:59|43
1615188023|02:42:8f:96:13:c3|85
1615188038|44:5e:cd:b2:3b:41|54
1615188038|6c:21:a2:44:c4:a6|81
1615188038|ac:5f:3e:f4:e0:3f|77
1615188053|6c:21:a2:44:c4:a6|76
1615188068|fa:7a:75:85:26:3a|75
1615188068|52:39:b2:1b:a7:70|90
1615188068|44:5e:cd:b2:3b:41|57
1615188068|6c:21:a2:44:c4:a6|80
1615188083|da:a1:19:54:fe:5f|77
1615188083|74:df:bf:4c:51:59|47
1615188083|6c:21:a2:44:c4:a6|79
1615188098|a4:c3:f0:c9:2c:cd|58
1615188098|9e:ad:d4:db:f0:16|71
1615188098|48:d2:24:8e:09:8b|91
1615188098|6c:21:a2:44:c4:a6|83
1615188098|da:a1:19:54:fe:5f|77
1615188113|6c:21:a2:44:c4:a6|83
1615188113|a4:c3:f0:c9:2c:cd|58
1615188128|02:7e:bb:15:0a:2f|76
1615188128|6c:21:a2:44:c4:a6|79
1615188143|ac:5f:3e:f4:e0:3f|52
1615188143|74:df:bf:4c:51:59|46
1615188143|6c:21:a2:44:c4:a6|74
1615188143|02:7e:bb:15:0a:2f|76
1615188158|08:25:25:52:43:e8|71
1615188158|6c:21:a2:44:c4:a6|76
1615188158|ac:5f:3e:f4:e0:3f|52
1615188173|da:a1:19:a3:01:6c|91
1615188173|02:35:b9:c7:dc:a2|74
1615188173|6c:21:a2:44:c4:a6|82
1615188173|da:a1:19:8f:2d:43|75
1615188173|ac:5f:3e:f4:e0:3f|49
1615188173|08:25:25:52:43:e8|71
1615188188|da:a1:19:67:70:dd|72
1615188188|6c:21:a2:44:c4:a6|87
1615188188|02:e1:7d:bd:c5:14|71
1615188188|da:a1:19:a3:01:6c|91
1615188203|02:db:ba:5c:38:2f|73
1615188203|74:df:bf:4c:51:59|42
1615188203|6c:21:a2:44:c4:a6|80
1615188203|28:e3:47:12:4b:4a|80
1615188203|08:25:25:52:43:e8|71
1615188218|08:25:25:52:43:e8|77
1615188218|6c:21:a2:44:c4:a6|77
1615188218|02:db:ba:5c:38:2f|73
1615188233|6c:21:a2:44:c4:a6|77
1615188233|da:a1:19:5a:06:57|76
1615188248|ae:b4:4e:21:e2:18|79
1615188248|fa:7a:75:85:26:3a|79
1615188248|da:a1:19:5f:66:21|68
1615188248|6c:21:a2:44:c4:a6|80
1615188263|74:df:bf:4c:51:59|46
1615188263|ae:b4:4e:21:e2:18|79
1615188278|04:b4:29:e2:5d:23|71
1615188278|b4:d5:bd:a7:6f:43|67
1615188278|08:25:25:52:43:e8|75
1615188278|6c:21:a2:44:c4:a6|81
1615188293|6c:21:a2:44:c4:a6|84
1615188293|4e:e4:31:88:de:93|85
1615188308|02:33:6b:f0:19:e7|90
1615188308|6c:21:a2:44:c4:a6|77
1615188308|a2:00:e5:57:fc:97|70
1615188323|74:df:bf:4c:51:59|41
1615188323|ac:5f:3e:f4:e0:3f|61
1615188323|08:25:25:52:43:e8|76
1615188323|6c:21:a2:44:c4:a6|84
1615188323|02:33:6b:f0:19:e7|90
1615188338|6c:21:a2:44:c4:a6|80
1615188338|ac:5f:3e:f4:e0:3f|65
1615188338|74:df:bf:4c:51:59|41
1615188353|6c:21:a2:44:c4:a6|84
1615188368|08:25:25:52:43:e8|68
1615188368|6c:21:a2:44:c4:a6|80
1615188383|74:df:bf:4c:51:59|40
1615188383|6c:21:a2:44:c4:a6|76
1615188383|08:25:25:52:43:e8|68
1615188398|6c:21:a2:44:c4:a6|80
1615188398|48:d2:24:8e:09:8b|91
1615188398|74:df:bf:4c:51:59|40
1615188413|6c:21:a2:44:c4:a6|79
1615188428|fa:7a:75:85:26:3a|77
1615188428|3c:f8:62:43:8b:b3|66
1615188428|02:2b:a4:9c:a2:b9|68
1615188428|6c:21:a2:44:c4:a6|83
1615188443|da:a1:19:e9:51:05|85
1615188443|40:f5:20:44:c9:94|61
1615188443|74:df:bf:4c:51:59|48
1615188443|6c:21:a2:44:c4:a6|84
1615188443|ac:5f:3e:f4:e0:3f|69
1615188443|fa:7a:75:85:26:3a|77
1615188458|9e:ad:d4:db:f0:16|75
1615188458|ac:5f:3e:f4:e0:3f|66
1615188458|6c:21:a2:44:c4:a6|81
1615188458|48:d2:24:8e:09:8b|91
1615188458|40:f5:20:44:c9:94|64
1615188458|da:a1:19:e9:51:05|85
1615188473|a2:00:e5:57:fc:97|65
1615188473|26:e5:e3:1c:2b:32|76
1615188473|02:c2:09:16:07:48|70
1615188473|2e:46:e7:8a:77:06|76
1615188473|6c:21:a2:44:c4:a6|75
1615188473|ac:5f:3e:f4:e0:3f|65
1615188473|9e:ad:d4:db:f0:16|75
1615188488|f6:df:ef:ac:a7:43|92
1615188488|02:18:78:d0:76:6a|81
1615188488|6c:21:a2:44:c4:a6|79
1615188488|a2:00:e5:57:fc:97|65
1615188503|74:df:bf:4c:51:59|46
1615188503|44:5e:cd:b2:3b:41|56
1615188503|28:e3:47:12:4b:4a|74
1615188503|6c:21:a2:44:c4:a6|81
1615188503|f6:df:ef:ac:a7:43|92
1615188518|da:a1:19:20:0d:6b|79
1615188518|6c:21:a2:44:c4:a6|82
1615188518|a2:00:e5:57:fc:97|65
1615188518|74:df:bf:4c:51:59|46
1615188533|6c:21:a2:44:c4:a6|79
1615188533|44:5e:cd:b2:3b:41|57
1615188533|da:a1:19:9a:ee:70|83
1615188533|da:79:bc:54:8b:b3|71
1615188533|da:a1:19:20:0d:6b|79
1615188548|44:5e:cd:b2:3b:41|67
1615188548|9e:ad:d4:db:f0:16|81
1615188548|26:e5:e3:1c:2b:32|81
1615188548|6c:21:a2:44:c4:a6|76
1615188563|da:a1:19:3a:10:c4|76
1615188563|74:df:bf:4c:51:59|43
1615188563|6c:21:a2:44:c4:a6|77
1615188563|44:5e:cd:b2:3b:41|67
1615188578|06:88:0d:16:e7:da|92
1615188578|6c:21:a2:44:c4:a6|79
1615188578|48:d2:24:8e:09:8b|92
1615188578|da:a1:19:3a:10:c4|76
1615188593|06:88:0d:16:e7:da|92
1615188608|6c:21:a2:44:c4:a6|82
1615188608|06:88:0d:16:e7:da|92
1615188623|74:df:bf:4c:51:59|40
1615188623|3a:95:a5:3e:01:b9|79
1615188623|6c:21:a2:44:c4:a6|80
1615188638|da:a1:19:df:45:f9|87
1615188638|6c:21:a2:44:c4:a6|74
1615188653|5c:51:4f:bd:06:7d|75
1615188653|9e:ad:d4:db:f0:16|73
1615188653|6c:21:a2:44:c4:a6|79
1615188653|da:a1:19:df:45:f9|87
1615188668|fa:7a:75:85:26:3a|75
1615188668|7e:dc:06:be:d4:52|81
1615188668|6c:21:a2:44:c4:a6|79
1615188668|5c:51:4f:bd:06:7d|75
1615188683|6c:21:a2:44:c4:a6|85
1615188683|74:df:bf:4c:51:59|47
1615188683|08:25:25:52:43:e8|67
1615188683|e0:13:b5:73:5d:57|85
1615188683|fa:7a:75:85:26:3a|75
1615188698|08:25:25:52:43:e8|69
1615188698|48:d2:24:8e:09:8b|90
1615188698|6c:21:a2:44:c4:a6|80
1615188713|9e:ad:d4:db:f0:16|72
1615188713|44:5e:cd:b2:3b:41|55
1615188713|d6:fc:4b:eb:89:ab|76
1615188713|da:a1:19:f9:06:f1|71
1615188713|6c:21:a2:44:c4:a6|74
1615188713|08:25:25:52:43:e8|69
1615188728|44:5e:cd:b2:3b:41|56
1615188728|6c:21:a2:44:c4:a6|76
1615188728|9e:ad:d4:db:f0:16|72
1615188743|74:df:bf:4c:51:59|47
1615188743|36:0c:90:ae:27:0f|94
1615188743|08:25:25:52:43:e8|78
1615188743|6c:21:a2:44:c4:a6|80
1615188743|44:5e:cd:b2:3b:41|56
1615188758|6c:21:a2:44:c4:a6|79
1615188758|48:d2:24:8e:09:8b|93
1615188758|74:df:bf:4c:51:59|47
1615188773|6c:21:a2:44:c4:a6|80
1615188773|da:a1:19:67:aa:7f|83
1615188773|44:5e:cd:b2:3b:41|55
1615188788|08:25:25:52:43:e8|77
1615188788|6c:21:a2:44:c4:a6|79
1615188803|82:b7:e8:19:00:3a|76
1615188803|74:df:bf:4c:51:59|48
1615188803|28:e3:47:12:4b:4a|76
1615188803|44:5e:cd:b2:3b:41|58
1615188803|6c:21:a2:44:c4:a6|74
1615188818|44:5e:cd:b2:3b:41|54
1615188818|e0:13:b5:73:5d:57|82
1615188818|6c:21:a2:44:c4:a6|81
1615188818|48:d2:24:8e:09:8b|90
1615188818|82:b7:e8:19:00:3a|76
1615188833|ef:4b:ef:a4:a4:66|70
1615188833|9f:5a:5f:f7:b4:8f|85
1615188833|6c:21:a2:44:c4:a6|79
1615188833|44:5e:cd:b2:3b:41|54
1615188848|6c:21:a2:44:c4:a6|84
1615188848|ee:7c:6e:04:d9:3a|71
1615188848|ef:4b:ef:a4:a4:66|70
1615188863|40:83:de:e7:24:d9|91
1615188863|4e:f7:3f:a3:b8:a0|75
1615188863|74:df:bf:4c:51:59|40
1615188863|44:5e:cd:b2:3b:41|66
1615188863|6c:21:a2:44:c4:a6|80
1615188878|a4:c3:f0:c9:2c:cd|61
1615188878|b4:d5:bd:a7:6f:43|63
1615188878|6c:21:a2:44:c4:a6|80
1615188878|4e:f7:3f:a3:b8:a0|83
1615188878|40:83:de:e7:24:d9|91
1615188893|da:a1:19:09:7d:59|76
1615188893|6c:21:a2:44:c4:a6|76
1615188908|6c:21:a2:44:c4:a6|78
1615188908|da:a1:19:09:7d:59|76
1615188923|3a:a3:30:21:c1:0b|82
1615188923|74:df:bf:4c:51:59|43
1615188923|da:9c:e0:2d:e3:7f|75
1615188923|6c:21:a2:44:c4:a6|79
1615188923|7e:dc:06:be:d4:52|81
1615188938|44:5e:cd:b2:3b:41|59
1615188938|6c:21:a2:44:c4:a6|80
1615188938|3a:a3:30:21:c1:0b|76
1615188953|6c:21:a2:44:c4:a6|81
1615188968|6c:21:a2:44:c4:a6|77
1615188983|7a:2a:9c:25:4e:8c|80
1615188983|74:df:bf:4c:51:59|47
1615188983|6c:21:a2:44:c4:a6|79
1615188983|a2:00:e5:57:fc:97|78
1615188998|6c:21:a2:44:c4:a6|80
1615188998|7a:2a:9c:25:4e:8c|80
1615189013|da:a1:19:d7:b7:87|80
1615189013|8c:8e:f2:93:4d:8a|82
1615189013|44:5e:cd:b2:3b:41|55
1615189013|6c:21:a2:44:c4:a6|84
1615189028|3c:f8:62:43:8b:b3|68
1615189028|44:5e:cd:b2:3b:41|56
1615189028|e0:13:b5:73:5d:57|84
1615189028|6c:21:a2:44:c4:a6|81
1615189028|08:25:25:52:43:e8|69
1615189028|da:a1:19:d7:b7:87|80
1615189043|74:df:bf:4c:51:59|47
1615189043|6c:21:a2:44:c4:a6|79
1615189043|3c:f8:62:43:8b:b3|68
1615189058|6c:21:a2:44:c4:a6|77
1615189058|74:df:bf:4c:51:59|47
1615189073|44:5e:cd:b2:3b:41|51
1615189073|6c:21:a2:44:c4:a6|79
1615189088|6c:21:a2:44:c4:a6|78
1615189088|b8:8d:12:39:ae:cc|82
1615189088|44:5e:cd:b2:3b:41|54
1615189103|74:df:bf:4c:51:59|41
1615189103|6c:21:a2:44:c4:a6|81
1615189118|6c:21:a2:44:c4:a6|79
1615189118|44:5e:cd:b2:3b:41|59
1615189133|44:5e:cd:b2:3b:41|56
1615189133|6c:21:a2:44:c4:a6|74
1615189148|6c:21:a2:44:c4:a6|79
1615189163|6c:21:a2:44:c4:a6|80
1615189178|ec:9b:f3:c4:ef:87|92
1615189178|6c:21:a2:44:c4:a6|86
1615189178|44:5e:cd:b2:3b:41|59
1615189178|48:d2:24:8e:09:8b|90
1615189178|da:a1:19:ac:12:c6|77
1615189193|6c:21:a2:44:c4:a6|80
1615189193|ec:9b:f3:c4:ef:87|92
1615189208|6c:21:a2:44:c4:a6|80
1615189223|08:25:25:52:43:e8|72
1615189223|74:df:bf:4c:51:59|49
1615189223|6c:21:a2:44:c4:a6|76
1615189238|da:a1:19:a4:a7:30|74
1615189238|6c:21:a2:44:c4:a6|80
1615189238|48:d2:24:8e:09:8b|91
1615189238|08:25:25:52:43:e8|72
1615189253|5c:51:4f:bd:06:7d|87
1615189253|e0:13:b5:73:5d:57|78
1615189253|6c:21:a2:44:c4:a6|80
1615189253|44:5e:cd:b2:3b:41|54
1615189253|da:a1:19:a4:a7:30|74
1615189268|44:5e:cd:b2:3b:41|53
1615189268|6c:21:a2:44:c4:a6|81
1615189283|74:df:bf:4c:51:59|48
1615189283|6c:21:a2:44:c4:a6|78
1615189283|44:5e:cd:b2:3b:41|54
1615189298|6c:21:a2:44:c4:a6|76
1615189298|74:df:bf:4c:51:59|48
1615189313|da:a1:19:1b:eb:b4|76
1615189313|44:5e:cd:b2:3b:41|62
1615189313|da:a1:19:c1:2a:40|72
1615189313|6c:21:a2:44:c4:a6|77
1615189328|6c:21:a2:44:c4:a6|79
1615189328|3c:f8:62:43:8b:b3|67
1615189328|da:a1:19:1b:eb:b4|76
1615189343|7e:dc:06:be:d4:52|78
1615189343|e0:13:b5:73:5d:57|84
1615189343|74:df:bf:4c:51:59|43
1615189343|6c:21:a2:44:c4:a6|79
1615189358|44:5e:cd:b2:3b:41|57
1615189358|6c:21:a2:44:c4:a6|81
1615189358|7e:dc:06:be:d4:52|78
1615189373|08:25:25:52:43:e8|70
1615189373|6c:21:a2:44:c4:a6|80
1615189373|da:a1:19:e2:9a:89|74
1615189373|9e:ad:d4:db:f0:16|73
1615189373|44:5e:cd:b2:3b:41|57
1615189388|44:5e:cd:b2:3b:41|56
1615189388|ec:01:ee:ca:81:c6|93
1615189388|6c:21:a2:44:c4:a6|76
1615189388|a2:00:e5:57:fc:97|65
1615189388|08:25:25:52:43:e8|70
1615189403|28:e3:47:12:4b:4a|73
1615189403|74:df:bf:4c:51:59|41
1615189403|6c:21:a2:44:c4:a6|78
1615189403|44:5e:cd:b2:3b:41|61
1615189418|6c:21:a2:44:c4:a6|80
1615189418|28:e3:47:12:4b:4a|73
1615189433|e0:13:b5:73:5d:57|84
1615189433|6c:21:a2:44:c4:a6|85
1615189448|08:25:25:52:43:e8|79
1615189448|6c:21:a2:44:c4:a6|78
1615189448|e0:13:b5:73:5d:57|84
1615189463|74:df:bf:4c:51:59|48
1615189463|6c:21:a2:44:c4:a6|76
1615189463|da:a1:19:b5:25:14|74
1615189463|da:a1:19:eb:15:9c|74
1615189463|08:25:25:52:43:e8|79
1615189478|a4:c3:f0:c9:2c:cd|63
1615189478|b4:d5:bd:a7:6f:43|67
1615189478|ec:9b:f3:c4:ef:87|92
1615189478|da:a1:19:d9:04:4a|71
1615189478|48:d2:24:8e:09:8b|91
1615189478|6c:21:a2:44:c4:a6|79
1615189478|74:df:bf:4c:51:59|48
1615189493|6c:21:a2:44:c4:a6|79
1615189493|a4:c3:f0:c9:2c:cd|63
1615189508|08:25:25:52:43:e8|70
1615189508|44:5e:cd:b2:3b:41|62
1615189508|6c:21:a2:44:c4:a6|84
1615189523|74:df:bf:4c:51:59|50
1615189523|6c:21:a2:44:c4:a6|81
1615189523|da:a1:19:40:1a:99|70
1615189523|08:25:25:52:43:e8|70
1615189538|e0:dc:ff:30:2c:7c|81
1615189538|fa:7a:75:85:26:3a|74
1615189538|48:d2:24:8e:09:8b|94
1615189538|6c:21:a2:44:c4:a6|79
1615189538|44:5e:cd:b2:3b:41|57
1615189538|da:a1:19:aa:51:17|84
1615189538|74:df:bf:4c:51:59|50
1615189553|7e:dc:06:be:d4:52|73
1615189553|44:5e:cd:b2:3b:41|63
1615189553|6c:21:a2:44:c4:a6|74
1615189553|b8:8d:12:39:ae:cc|82
1615189553|e0:dc:ff:30:2c:7c|81
1615189568|e0:dc:ff:30:2c:7c|76
1615189568|08:25:25:52:43:e8|82
1615189568|a2:00:e5:57:fc:97|74
1615189568|6c:21:a2:44:c4:a6|80
1615189568|7e:dc:06:be:d4:52|73
1615189583|74:df:bf:4c:51:59|47
1615189583|a2:00:e5:57:fc:97|66
1615189583|6c:21:a2:44:c4:a6|80
1615189583|da:a1:19:1a:ec:be|83
1615189583|e0:dc:ff:30:2c:7c|80
1615189598|da:a1:19:ca:95:52|73
1615189598|6c:21:a2:44:c4:a6|80
1615189598|32:78:5b:a8:74:1d|87
1615189598|44:5e:cd:b2:3b:41|57
1615189613|08:25:25:52:43:e8|82
1615189613|6c:21:a2:44:c4:a6|79
1615189613|da:a1:19:41:85:39|71
1615189613|70:66:55:d2:45:1b|71
1615189613|da:a1:19:ca:95:52|73
1615189628|6c:21:a2:44:c4:a6|75
1615189643|74:df:bf:4c:51:59|39
1615189643|f6:17:c8:6f:05:78|83
1615189643|da:a1:19:87:27:f7|73
1615189643|70:66:55:d2:45:1b|70
1615189643|6c:21:a2:44:c4:a6|77
1615189658|48:d2:24:8e:09:8b|93
1615189658|6c:21:a2:44:c4:a6|80
1615189658|74:df:bf:4c:51:59|39
1615189673|70:66:55:d2:45:1b|76
1615189673|b4:c4:fc:ab:ad:4a|79
1615189673|48:d2:24:8e:09:8b|93
1615189688|08:25:25:52:43:e8|76
1615189688|6c:21:a2:44:c4:a6|81
1615189688|70:66:55:d2:45:1b|76
1615189703|74:df:bf:4c:51:59|43
1615189703|6c:21:a2:44:c4:a6|80
1615189703|08:25:25:52:43:e8|76
1615189718|8a:08:e0:d3:8c:be|87
1615189718|6c:21:a2:44:c4:a6|74
1615189733|fa:7a:75:85:26:3a|75
1615189733|6c:21:a2:44:c4:a6|78
1615189733|e0:dc:ff:30:2c:7c|81
1615189748|7e:dc:06:be:d4:52|76
1615189748|6c:21:a2:44:c4:a6|80
1615189748|fa:7a:75:85:26:3a|75
1615189763|6c:21:a2:44:c4:a6|84
1615189763|74:df:bf:4c:51:59|49
1615189763|ec:9b:f3:c4:ef:87|91
1615189763|7e:dc:06:be:d4:52|76
1615189778|6c:21:a2:44:c4:a6|78
1615189793|6c:21:a2:44:c4:a6|79
1615189808|7e:dc:06:be:d4:52|78
1615189808|6c:21:a2:44:c4:a6|80
1615189823|e0:13:b5:73:5d:57|77
1615189823|74:df:bf:4c:51:59|47
1615189823|6c:21:a2:44:c4:a6|79
1615189823|7e:dc:06:be:d4:52|78
1615189838|6c:21:a2:44:c4:a6|80
1615189838|e0:13:b5:73:5d:57|77
1615189853|5c:51:4f:bd:06:7d|77
1615189853|6c:21:a2:44:c4:a6|82
1615189868|44:5e:cd:b2:3b:41|56
1615189868|6c:21:a2:44:c4:a6|78
1615189868|5c:51:4f:bd:06:7d|77
1615189883|da:a1:19:ca:29:ce|83
1615189883|2a:49:38:65:63:bb|72
1615189883|74:df:bf:4c:51:59|41
1615189883|a2:00:e5:57:fc:97|72
1615189883|08:25:25:52:43:e8|70
1615189883|6c:21:a2:44:c4:a6|74
1615189883|44:5e:cd:b2:3b:41|59
1615189898|6c:21:a2:44:c4:a6|78
1615189898|fa:7a:75:85:26:3a|73
1615189898|da:a1:19:ca:29:ce|83
1615189913|6c:21:a2:44:c4:a6|80
1615189913|44:5e:cd:b2:3b:41|60
1615189913|da:a1:19:b7:30:74|83
1615189913|da:a1:19:1f:10:a0|73
1615189928|da:a1:19:ef:94:88|83
1615189928|3c:f8:62:43:8b:b3|66
1615189928|6c:21:a2:44:c4:a6|83
1615189943|b4:c4:fc:ab:ad:4a|74
1615189943|74:df:bf:4c:51:59|41
1615189943|6c:21:a2:44:c4:a6|80
1615189958|6c:21:a2:44:c4:a6|79
1615189958|7e:dc:06:be:d4:52|73
1615189958|da:a1:19:a2:ab:ba|72
1615189958|48:d2:24:8e:09:8b|91
1615189958|b4:c4:fc:ab:ad:4a|74
1615189973|08:25:25:52:43:e8|73
1615189973|6c:21:a2:44:c4:a6|76
1615189988|6c:21:a2:44:c4:a6|79
1615190003|28:e3:47:12:4b:4a|81
1615190003|74:df:bf:4c:51:59|47
1615190003|6c:21:a2:44:c4:a6|81
1615190018|6c:21:a2:44:c4:a6|81
1615190018|48:d2:24:8e:09:8b|94
1615190018|28:e3:47:12:4b:4a|81
1615190033|da:a1:19:da:ba:1e|73
1615190033|6c:21:a2:44:c4:a6|78
1615190048|a2:00:e5:57:fc:97|79
1615190048|6c:21:a2:44:c4:a6|77
1615190048|da:a1:19:da:ba:1e|73
1615190063|be:b1:50:e3:a2:87|81
1615190063|74:df:bf:4c:51:59|47
1615190063|6c:21:a2:44:c4:a6|78
1615190063|a2:00:e5:57:fc:97|79
1615190078|b4:d5:bd:a7:6f:43|71
1615190078|44:5e:cd:b2:3b:41|59
1615190078|6c:21:a2:44:c4:a6|80
1615190078|be:b1:50:e3:a2:87|81
1615190093|6c:21:a2:44:c4:a6|84
1615190093|a4:c3:f0:c9:2c:cd|55
1615190093|44:5e:cd:b2:3b:41|55
1615190093|b4:d5:bd:a7:6f:43|71
1615190108|44:5e:cd:b2:3b:41|58
1615190108|6c:21:a2:44:c4:a6|81
1615190123|74:df:bf:4c:51:59|46
1615190123|6c:21:a2:44:c4:a6|78
1615190123|44:5e:cd:b2:3b:41|57
1615190138|6c:21:a2:44:c4:a6|77
1615190138|74:df:bf:4c:51:59|46
1615190153|7e:dc:06:be:d4:52|77
1615190153|5c:51:4f:bd:06:7d|78
1615190153|fa:7a:75:85:26:3a|71
1615190153|b8:8d:12:39:ae:cc|87
1615190153|6c:21:a2:44:c4:a6|80
1615190168|da:a1:19:f1:5d:78|78
1615190168|6c:21:a2:44:c4:a6|82
1615190168|7e:dc:06:be:d4:52|77
1615190183|74:df:bf:4c:51:59|50
1615190183|08:25:25:52:43:e8|79
1615190183|6c:21:a2:44:c4:a6|83
1615190183|a2:00:e5:57:fc:97|73
1615190183|da:a1:19:f1:5d:78|78
1615190198|6c:21:a2:44:c4:a6|78
1615190213|6c:21:a2:44:c4:a6|75
1615190228|da:a1:19:0a:10:b7|77
1615190228|6c:21:a2:44:c4:a6|80
1615190243|74:df:bf:4c:51:59|42
1615190243|da:a1:19:f9:84:39|74
1615190243|6c:21:a2:44:c4:a6|79
1615190243|da:a1:19:0a:10:b7|77
1615190258|48:d2:24:8e:09:8b|91
1615190258|74:df:bf:4c:51:59|42
1615190273|08:25:25:52:43:e8|73
1615190273|6c:21:a2:44:c4:a6|80
1615190288|da:a1:19:c2:d5:70|69
1615190288|da:a1:19:f9:63:62|84
1615190288|6c:21:a2:44:c4:a6|79
1615190288|08:25:25:52:43:e8|73
