1616400909|3c:f0:11:b6:0c:92|95
1616400909|3c:20:f6:eb:04:f9|91
1616400909|00:d0:c9:f3:00:70|86
1616400924|00:d0:c9:f3:00:70|91
1616400924|40:f5:20:46:c5:40|55
1616400939|7c:b2:32:6f:8e:50|92
1616400939|00:d0:c9:f3:00:70|89
1616400954|00:d0:c9:f3:00:70|91
1616400954|40:f5:20:46:c5:40|51
1616400954|7c:b2:32:6f:8e:50|92
1616400969|00:d0:c9:f3:00:70|90
1616400984|10:a4:be:41:b2:fa|90
1616400984|54:b8:02:47:9a:68|91
1616400984|00:d0:c9:f3:00:70|90
1616400999|54:b8:02:47:9a:68|92
1616400999|28:f0:76:14:84:f2|88
1616400999|34:8b:75:2a:90:bb|92
1616400999|00:d0:c9:f3:00:70|89
1616401014|40:f5:20:48:8d:38|53
1616401014|54:b8:02:47:9a:68|91
1616401029|00:d0:c9:f3:00:70|90
1616401029|40:f5:20:48:8d:38|53
1616401044|00:d0:c9:f3:00:70|92
1616401059|a8:34:6a:9e:60:4c|93
1616401059|00:d0:c9:f3:00:70|92
1616401074|a8:34:6a:9e:60:4c|93
1616401089|a8:34:6a:9e:60:4c|93
1616401104|00:d0:c9:f3:00:70|91
1616401149|00:d0:c9:f3:00:70|89
1616401179|28:f0:76:14:84:f2|91
1616401179|00:d0:c9:f3:00:70|89
1616401194|00:d0:c9:f3:00:70|91
1616401194|28:f0:76:14:84:f2|91
1616401209|00:d0:c9:f3:00:70|91
1616401224|00:d0:c9:f3:00:70|91
1616401239|28:f0:76:14:84:f2|88
1616401239|00:d0:c9:f3:00:70|91
1616401254|28:f0:76:14:84:f2|88
1616401269|00:d0:c9:f3:00:70|89
1616401269|28:f0:76:14:84:f2|88
1616401284|3c:f0:11:b6:0c:92|91
1616401284|00:d0:c9:f3:00:70|89
1616401299|3c:f0:11:b6:0c:92|91
1616401329|00:02:36:f0:05:39|91
1616401329|7c:b2:32:6f:8e:50|93
1616401359|ac:5f:3e:f4:e0:3f|71
1616401374|ac:5f:3e:f4:e0:3f|71
1616401389|ac:5f:3e:f4:e0:3f|71
1616401419|28:f0:76:14:84:f2|90
1616401434|00:d0:c9:f3:00:70|90
1616401434|28:f0:76:14:84:f2|90
1616401449|74:c1:4f:7a:63:d0|91
1616401449|9c:28:f7:a8:0f:92|91
1616401449|00:d0:c9:f3:00:70|90
1616401464|74:c1:4f:7a:63:d0|91
1616401479|ac:5f:3e:f4:e0:3f|74
1616401509|a4:e4:b8:af:f1:1b|91
1616401524|00:d0:c9:f3:00:70|90
1616401524|a4:e4:b8:af:f1:1b|91
1616401539|00:d0:c9:f3:00:70|90
1616401554|74:eb:80:7f:82:a0|90
1616401569|4c:49:e3:21:24:ae|87
1616401584|ac:5f:3e:f4:e0:3f|69
1616401584|c0:d3:c0:31:98:67|95
1616401584|4c:49:e3:21:24:ae|87
1616401599|28:f0:76:14:84:f2|91
1616401599|ac:5f:3e:f4:e0:3f|69
1616401614|28:f0:76:14:84:f2|91
1616401629|28:f0:76:14:84:f2|91
1616401644|28:f0:76:14:84:f2|91
1616401659|28:f0:76:14:84:f2|90
1616401689|60:1d:91:1a:1f:9d|93
1616401704|ac:5f:3e:f4:e0:3f|64
1616401704|00:d0:c9:f3:00:70|93
1616401704|60:1d:91:1a:1f:9d|93
1616401719|00:02:36:f0:05:1e|94
1616401719|a8:c8:3a:64:3c:e2|91
1616401734|00:d0:c9:f3:00:70|90
1616401734|1c:42:7d:90:55:73|92
1616401734|00:02:36:f0:05:1e|94
1616401749|00:d0:c9:f3:00:70|90
1616401764|00:d0:c9:f3:00:70|90
1616401779|f4:7d:ef:e7:df:eb|91
1616401779|00:d0:c9:f3:00:70|89
1616401794|40:83:de:e7:24:d9|94
1616401794|f4:7d:ef:e7:df:eb|91
1616401809|00:d0:c9:f3:00:70|92
1616401809|40:83:de:e7:24:d9|94
1616401824|00:d0:c9:f3:00:70|89
1616401839|00:d0:c9:f3:00:70|90
1616401839|ac:5f:3e:f4:e0:3f|65
1616401854|54:fc:f0:1f:e9:9d|92
1616401854|00:d0:c9:f3:00:70|90
1616401869|00:d0:c9:f3:00:70|90
1616401869|54:fc:f0:1f:e9:9d|92
1616401884|00:d0:c9:f3:00:70|91
1616401899|28:f0:76:14:84:f2|88
1616401899|00:d0:c9:f3:00:70|91
1616401914|28:f0:76:14:84:f2|88
1616401929|00:d0:c9:f3:00:70|90
1616401944|d4:ca:6e:40:48:39|90
1616401944|00:d0:c9:f3:00:70|90
1616401959|d4:ca:6e:40:48:39|90
1616401974|d4:ca:6e:40:48:39|90
1616401989|d4:ca:6e:40:48:39|90
1616402004|60:1d:91:92:21:71|94
1616402004|d4:ca:6e:40:48:39|90
1616402019|60:1d:91:92:21:71|94
1616402049|00:d0:c9:f3:00:70|90
1616402064|00:d0:c9:f3:00:70|90
1616402079|00:d0:c9:f3:00:70|90
1616402094|00:d0:c9:f3:00:70|90
1616402109|00:02:36:f0:03:f8|89
1616402109|00:d0:c9:f3:00:70|90
1616402124|00:02:36:f0:03:f8|90
1616402139|28:f0:76:14:84:f2|89
1616402139|00:d0:c9:f3:00:70|89
1616402154|28:f0:76:14:84:f2|89
1616402169|00:d0:c9:f3:00:70|91
1616402184|00:d0:c9:f3:00:70|89
1616402199|00:d0:c9:f3:00:70|91
1616402214|00:d0:c9:f3:00:70|91
1616402229|00:d0:c9:f3:00:70|90
1616402244|00:d0:c9:f3:00:70|90
1616402259|00:d0:c9:f3:00:70|88
1616402274|28:f0:76:14:84:f2|88
1616402304|00:d0:c9:f3:00:70|91
1616402319|00:d0:c9:f3:00:70|89
1616402334|28:f0:76:14:84:f2|85
1616402334|00:d0:c9:f3:00:70|89
1616402349|28:f0:76:14:84:f2|85
1616402364|80:ce:b9:20:4b:e4|90
1616402364|04:b4:29:e2:5d:23|73
1616402364|00:d0:c9:f3:00:70|87
1616402379|80:ce:b9:20:4b:e4|90
1616402394|80:ce:b9:20:4b:e4|90
1616402409|80:ce:b9:20:4b:e4|90
1616402439|98:49:14:cc:3a:20|89
1616402454|00:d0:c9:f3:00:70|88
1616402454|98:49:14:cc:3a:20|94
1616402469|08:78:08:cf:af:02|94
1616402469|00:d0:c9:f3:00:70|89
1616402484|98:49:14:cc:3a:20|92
1616402484|08:78:08:cf:af:02|94
1616402499|c4:18:e9:e4:6a:af|87
1616402514|c4:18:e9:e4:6a:af|87
1616402529|c4:18:e9:e4:6a:af|87
1616402544|c4:18:e9:e4:6a:af|87
1616402559|00:d0:c9:f3:00:70|89
1616402574|28:f0:76:14:84:f2|87
1616402634|00:d0:c9:f3:00:70|89
1616402634|c4:18:e9:e4:6a:af|92
1616402649|08:78:08:cf:af:02|95
1616402649|00:d0:c9:f3:00:70|90
1616402664|ec:f3:42:23:05:65|91
1616402664|08:78:08:cf:af:02|95
1616402679|ec:f3:42:23:05:65|91
1616402694|00:d0:c9:f3:00:70|91
1616402709|00:d0:c9:f3:00:70|90
1616402724|14:3c:c3:17:ff:de|90
1616402724|00:d0:c9:f3:00:70|90
1616402739|14:3c:c3:17:ff:de|90
1616402754|28:f0:76:14:84:f2|92
1616402754|14:3c:c3:17:ff:de|90
1616402769|00:d0:c9:f3:00:70|91
1616402784|7c:b2:32:6f:8e:50|93
1616402799|24:18:1d:3d:e6:7f|93
1616402799|00:0c:e7:05:d0:32|89
1616402814|00:d0:c9:f3:00:70|91
1616402814|24:18:1d:3d:e6:7f|93
1616402829|00:d0:c9:f3:00:70|91
1616402844|00:d0:c9:f3:00:70|91
1616402859|00:d0:c9:f3:00:70|90
1616402874|00:d0:c9:f3:00:70|90
1616402889|98:49:14:cc:3a:20|92
1616402889|00:d0:c9:f3:00:70|92
1616402904|98:49:14:cc:3a:20|92
1616402919|00:d0:c9:f3:00:70|90
1616402919|98:49:14:cc:3a:20|92
1616402934|00:d0:c9:f3:00:70|90
1616402949|00:d0:c9:f3:00:70|90
1616402964|00:d0:c9:f3:00:70|89
1616402994|28:f0:76:14:84:f2|86
1616402994|44:2a:60:de:b8:e6|93
1616403009|28:f0:76:14:84:f2|86
1616403024|28:f0:76:14:84:f2|86
1616403039|04:b4:29:e2:5d:23|65
1616403039|00:d0:c9:f3:00:70|91
1616403054|04:b4:29:e2:5d:23|65
1616403070|c0:8c:71:8d:62:c6|94
1616403070|00:d0:c9:f3:00:70|89
1616403085|98:49:14:cc:3a:20|92
1616403085|c0:8c:71:8d:62:c6|94
1616403100|80:4e:70:34:6a:16|94
1616403100|00:d0:c9:f3:00:70|91
1616403115|00:d0:c9:f3:00:70|90
1616403115|80:4e:70:34:6a:16|94
1616403130|00:02:36:f0:05:07|94
1616403145|b0:e2:35:c1:0b:3d|69
1616403145|00:02:36:f0:05:07|93
1616403160|04:b4:29:e2:5d:23|71
1616403160|b0:e2:35:c1:0b:3d|69
1616403175|d4:c9:4b:70:01:e4|92
1616403175|04:b4:29:e2:5d:23|71
1616403190|00:d0:c9:f3:00:70|87
1616403190|08:78:08:cf:af:02|93
1616403190|d4:c9:4b:70:01:e4|92
1616403205|00:d0:c9:f3:00:70|88
1616403220|00:d0:c9:f3:00:70|89
1616403235|28:f0:76:14:84:f2|87
1616403250|74:eb:80:81:b5:a6|90
1616403250|00:d0:c9:f3:00:70|90
1616403265|c0:d3:c0:31:98:67|93
1616403265|74:eb:80:81:b5:a6|90
1616403280|00:d0:c9:f3:00:70|91
1616403295|3c:57:6c:59:7a:3d|85
1616403295|00:d0:c9:f3:00:70|91
1616403310|00:02:36:f0:05:25|94
1616403325|00:02:36:f0:05:25|94
1616403340|c8:3c:85:29:48:ad|93
1616403340|00:d0:c9:f3:00:70|91
1616403355|c8:3c:85:29:48:ad|93
1616403370|00:d0:c9:f3:00:70|91
1616403370|c8:3c:85:29:48:ad|93
1616403385|00:d0:c9:f3:00:70|91
1616403400|00:d0:c9:f3:00:70|91
1616403415|28:f0:76:14:84:f2|88
1616403445|08:78:08:cf:af:02|93
1616403445|00:d0:c9:f3:00:70|91
1616403460|08:78:08:cf:af:02|93
1616403475|08:78:08:cf:af:02|93
1616403505|08:78:08:cf:af:02|93
1616403505|00:d0:c9:f3:00:70|92
1616403520|08:78:08:cf:af:02|93
1616403535|00:d0:c9:f3:00:70|94
1616403550|00:d0:c9:f3:00:70|91
1616403565|04:b4:29:e2:5d:23|70
1616403565|00:d0:c9:f3:00:70|90
1616403580|00:d0:c9:f3:00:70|89
1616403580|04:b4:29:e2:5d:23|70
1616403595|28:f0:76:14:84:f2|91
1616403595|74:eb:80:81:b5:a6|95
1616403595|00:d0:c9:f3:00:70|90
1616403610|28:f0:76:14:84:f2|91
1616403625|3c:f0:11:b6:0c:92|92
1616403625|00:d0:c9:f3:00:70|91
1616403625|08:78:08:cf:af:02|93
1616403640|3c:bb:fd:3a:b7:31|94
1616403640|3c:f0:11:b6:0c:92|92
1616403655|38:37:8b:ea:b0:81|91
1616403655|28:f0:76:14:84:f2|92
1616403655|3c:bb:fd:3a:b7:31|94
1616403670|38:37:8b:ea:b0:81|91
1616403685|38:37:8b:ea:b0:81|91
1616403700|00:d0:c9:f3:00:70|92
1616403700|38:37:8b:ea:b0:81|91
1616403715|28:f0:76:14:84:f2|93
1616403715|00:d0:c9:f3:00:70|92
1616403730|00:d0:c9:f3:00:70|89
1616403730|28:f0:76:14:84:f2|93
1616403745|00:d0:c9:f3:00:70|89
1616403760|00:d0:c9:f3:00:70|90
1616403775|28:f0:76:14:84:f2|93
1616403775|00:d0:c9:f3:00:70|91
1616403790|28:f0:76:14:84:f2|93
1616403805|10:a4:be:41:f0:9a|94
1616403805|00:d0:c9:f3:00:70|92
1616403805|00:02:36:f0:03:e6|90
1616403820|00:02:36:f0:03:e6|92
1616403835|28:f0:76:14:84:f2|89
1616403835|00:02:36:f0:03:e6|91
1616403835|08:c5:e1:dc:5f:3f|94
1616403835|00:d0:c9:f3:00:70|90
1616403865|10:a4:be:41:f0:9a|91
1616403880|08:78:08:cf:af:02|93
1616403880|00:d0:c9:f3:00:70|89
1616403880|10:a4:be:41:f0:9a|92
1616403910|74:eb:80:81:b5:a6|94
1616403910|10:a4:be:41:f0:9a|92
1616403910|00:d0:c9:f3:00:70|87
1616403910|08:78:08:cf:af:02|94
1616403925|10:a4:be:41:f0:9a|94
1616403925|00:d0:c9:f3:00:70|90
1616403925|74:eb:80:81:b5:a6|94
1616403940|00:d0:c9:f3:00:70|88
1616403940|10:a4:be:41:f0:9a|94
1616403955|10:a4:be:41:f0:9a|92
1616403955|28:f0:76:14:84:f2|91
1616403955|00:d0:c9:f3:00:70|88
1616403970|10:a4:be:41:f0:9a|92
1616403985|00:d0:c9:f3:00:70|91
1616403985|10:a4:be:41:f0:9a|92
1616404000|10:a4:be:41:f0:9a|91
1616404015|28:f0:76:14:84:f2|92
1616404015|00:d0:c9:f3:00:70|91
1616404015|10:a4:be:41:f0:9a|93
1616404030|28:f0:76:14:84:f2|92
1616404045|00:d0:c9:f3:00:70|93
1616404060|00:d0:c9:f3:00:70|93
