1616401055|28:f0:76:14:84:f2|84
1616401055|da:a1:19:f7:92:41|91
1616401055|00:d0:c9:f3:00:70|89
1616401070|d4:c9:4b:6b:bf:56|92
1616401070|dc:74:a8:6b:80:02|92
1616401070|00:d0:c9:f3:00:70|86
1616401085|c0:d9:62:76:ad:b4|84
1616401085|74:eb:80:2b:88:ae|89
1616401085|c6:86:16:0e:5e:e3|91
1616401085|5c:ac:4c:23:a3:76|89
1616401085|b2:9d:ce:76:d5:6c|87
1616401085|d4:c9:4b:6b:bf:56|92
1616401100|46:6d:3a:5e:82:09|88
1616401100|5c:ac:4c:23:a3:76|90
1616401100|7a:41:0a:31:54:86|83
1616401100|c0:d9:62:76:ad:b4|84
1616401115|d4:c9:4b:6b:f4:39|91
1616401115|5c:ac:4c:23:a3:76|90
1616401115|46:6d:3a:5e:82:09|88
1616401130|dc:74:a8:6b:80:02|87
1616401130|5c:ac:4c:23:a3:76|89
1616401130|5c:aa:fd:5c:b0:4d|82
1616401145|5c:ac:4c:23:a3:76|92
1616401145|da:a1:19:1b:ea:7e|92
1616401145|4e:26:e5:fe:d8:0b|72
1616401145|5c:aa:fd:5c:b0:4d|82
1616401160|c0:d9:62:76:ad:b4|88
1616401160|5c:ac:4c:23:a3:76|90
1616401160|6a:64:c6:7e:cd:22|91
1616401160|5c:aa:fd:5c:b0:4d|82
1616401175|5c:ac:4c:23:a3:76|90
1616401175|0c:e0:dc:67:86:0a|90
1616401190|dc:74:a8:6b:80:02|91
1616401190|c6:ec:32:61:ae:e8|90
1616401190|5c:aa:fd:5c:b0:4d|83
1616401205|4a:f4:41:d8:ac:4c|89
1616401205|d2:68:93:bd:52:c3|90
1616401205|da:a1:19:42:2f:29|90
1616401205|5c:ac:4c:23:a3:76|92
1616401205|02:00:00:00:00:00|93
1616401205|de:ec:c1:7c:7d:e5|84
1616401205|84:c7:ea:f1:c1:f6|88
1616401220|da:a1:19:42:2f:29|94
1616401220|da:a1:19:f8:50:8c|91
1616401220|5c:ac:4c:23:a3:76|90
1616401220|26:e5:84:e1:de:4e|89
1616401220|ec:10:7b:d4:39:31|93
1616401220|00:12:4e:23:8e:7d|93
1616401220|00:0c:e7:82:ff:f2|92
1616401220|5c:aa:fd:5c:b0:4d|83
1616401220|4a:f4:41:d8:ac:4c|89
1616401235|22:d9:62:76:ad:b4|85
1616401235|e6:27:34:1f:75:b8|83
1616401235|da:a1:19:fe:ed:95|90
1616401235|5c:aa:fd:5c:b0:4d|82
1616401250|5c:ac:4c:23:a3:76|90
1616401250|5c:aa:fd:5c:b0:4d|83
1616401250|22:d9:62:76:ad:b4|85
1616401265|58:40:4e:e0:a1:aa|90
1616401265|0e:67:67:f6:c7:d5|90
1616401265|46:58:cb:6b:59:38|94
1616401265|f2:c4:93:3f:99:ec|77
1616401265|5c:ac:4c:23:a3:76|93
1616401280|5c:ac:4c:23:a3:76|92
1616401280|da:a1:19:89:59:f0|93
1616401280|da:a1:19:3a:fa:cd|96
1616401280|5c:aa:fd:5c:b0:4d|83
1616401280|58:40:4e:e0:a1:aa|90
1616401295|6e:52:95:5a:44:a5|92
1616401295|5c:aa:fd:5c:b0:4d|83
1616401295|02:85:b3:86:63:66|84
1616401295|5c:ac:4c:23:a3:76|91
1616401310|f2:e6:b3:98:1a:79|91
1616401310|5c:ac:4c:23:a3:76|91
1616401310|00:0c:e7:08:51:45|89
1616401310|ea:ee:cc:7d:d4:ca|93
1616401310|da:a1:19:53:a7:e5|89
1616401310|22:2b:79:1d:20:74|91
1616401310|3e:ba:f3:a8:47:e2|76
1616401325|5c:ac:4c:23:a3:76|91
1616401325|da:a1:19:5e:58:d5|88
1616401325|9e:9c:2b:1b:cf:06|93
1616401325|8c:85:90:72:dd:f2|91
1616401325|22:2b:79:1d:20:74|90
1616401325|1a:10:f0:3c:ea:9d|88
1616401325|5c:aa:fd:5c:b0:4d|83
1616401325|f2:e6:b3:98:1a:79|91
1616401340|e8:d0:fc:94:47:bd|92
1616401340|2a:af:df:cc:de:4e|69
1616401340|5c:aa:fd:5c:b0:4d|83
1616401340|5c:ac:4c:23:a3:76|92
1616401355|da:ff:1e:87:cc:86|92
1616401355|28:f0:76:14:84:f2|87
1616401355|a2:c2:8b:e2:48:c5|88
1616401355|5c:ac:4c:23:a3:76|91
1616401355|da:a1:19:e7:aa:5e|88
1616401355|03:5d:f3:13:d7:04|95
1616401355|12:d5:c9:99:8c:df|93
1616401355|ac:5f:3e:f4:e0:3f|76
1616401355|e8:d0:fc:94:47:bd|92
1616401370|1e:bc:0c:3a:8c:bf|79
1616401370|ea:db:a1:7a:e0:c2|89
1616401370|ac:5f:3e:f4:e0:3f|84
1616401370|5c:aa:fd:5c:b0:4d|82
1616401370|da:ff:1e:87:cc:86|92
1616401385|22:3b:aa:4a:36:08|79
1616401385|c0:d9:62:76:ad:b4|90
1616401385|00:02:36:f0:05:65|91
1616401385|5c:ac:4c:23:a3:76|90
1616401385|1e:bc:0c:3a:8c:bf|79
1616401400|86:af:68:c7:7d:ce|93
1616401400|5c:ac:4c:23:a3:76|90
1616401400|5c:aa:fd:5c:b0:4d|83
1616401415|6a:4b:84:71:d9:77|90
1616401415|16:2c:ae:8b:57:96|89
1616401415|86:af:68:c7:7d:ce|93
1616401430|dc:74:a8:6b:80:02|84
1616401430|36:0a:0c:82:67:5e|75
1616401430|c4:18:e9:e4:6a:af|83
1616401430|5c:ac:4c:23:a3:76|92
1616401430|5c:aa:fd:5c:b0:4d|82
1616401445|12:0d:8d:6f:c7:e3|70
1616401445|5c:aa:fd:5c:b0:4d|83
1616401445|5c:ac:4c:23:a3:76|92
1616401445|fa:b5:5c:55:a3:98|85
1616401445|dc:74:a8:6b:80:02|84
1616401460|22:d9:62:76:ad:b4|88
1616401460|5c:ac:4c:23:a3:76|92
1616401460|12:0d:8d:6f:c7:e3|70
1616401475|60:1d:91:91:d3:47|92
1616401475|5c:aa:fd:5c:b0:4d|83
1616401475|ac:5f:3e:f4:e0:3f|79
1616401475|96:13:c3:63:bb:c0|84
1616401475|5c:ac:4c:23:a3:76|92
1616401475|32:91:57:ad:93:3a|90
1616401475|24:46:c8:d3:64:23|92
1616401490|c0:d9:62:76:ad:b4|87
1616401490|5c:ac:4c:23:a3:76|93
1616401505|5c:ac:4c:23:a3:76|90
1616401505|62:fb:d8:6e:00:71|78
1616401520|62:bb:7e:67:78:13|95
1616401520|02:99:91:49:b8:45|87
1616401520|02:00:00:00:00:00|89
1616401520|4e:13:9d:ea:89:70|91
1616401520|60:1d:91:91:fe:73|93
1616401520|5c:ac:4c:23:a3:76|90
1616401520|a4:e4:b8:af:f1:1b|85
1616401520|5c:aa:fd:5c:b0:4d|82
1616401520|f8:e0:b4:cb:fc:1a|91
1616401535|28:f0:76:14:84:f2|90
1616401535|5c:aa:fd:5c:b0:4d|82
1616401535|5c:ac:4c:23:a3:76|91
1616401535|62:bb:7e:67:78:13|95
1616401550|dc:74:a8:6b:80:02|91
1616401550|02:05:aa:8e:7b:cd|79
1616401550|ec:51:bc:e4:4d:23|93
1616401550|d8:5b:2a:54:a6:db|92
1616401550|5c:aa:fd:5c:b0:4d|82
1616401550|c0:8c:71:8e:ee:7d|91
1616401550|78:ef:0f:e7:e2:ff|92
1616401550|5c:ac:4c:23:a3:76|89
1616401550|28:f0:76:14:84:f2|90
1616401566|82:3e:e9:4b:a1:63|89
1616401566|82:ae:bc:6c:f4:75|84
1616401566|da:84:c7:fd:19:28|92
1616401566|00:0c:e7:1c:ef:61|92
1616401566|ce:d6:73:44:16:c0|85
1616401566|42:b2:34:ed:78:a5|91
1616401566|a6:e8:46:f0:db:b1|89
1616401566|5c:aa:fd:5c:b0:4d|81
1616401566|8e:bd:60:1d:eb:eb|73
1616401566|9e:dd:19:7c:4f:b8|86
1616401566|ba:1d:35:e6:6f:25|91
1616401566|dc:74:a8:6b:80:02|91
1616401581|ac:5f:3e:f4:e0:3f|72
1616401581|be:07:9d:e9:53:3a|90
1616401581|52:04:d9:88:c1:3d|67
1616401581|5c:aa:fd:5c:b0:4d|83
1616401581|dc:74:a8:6b:80:02|90
1616401581|96:95:97:dc:3d:c2|89
1616401581|02:62:32:ca:4a:fc|89
1616401596|ba:62:46:0f:1d:2d|84
1616401596|6e:e3:cc:59:68:7e|72
1616401596|5c:ac:4c:23:a3:76|90
1616401596|16:f8:7f:ad:48:ee|85
1616401596|5c:aa:fd:5c:b0:4d|83
1616401596|ac:5f:3e:f4:e0:3f|72
1616401611|02:10:34:dd:c1:fc|91
1616401611|c2:7f:2d:42:73:59|92
1616401611|24:46:c8:d4:23:b6|86
1616401611|5c:aa:fd:5c:b0:4d|83
1616401626|24:fb:65:b9:1c:f8|87
1616401626|fc:aa:b6:14:77:05|90
1616401626|02:cd:3d:d1:12:de|94
1616401626|4e:81:eb:9d:9a:96|91
1616401626|5c:ac:4c:23:a3:76|91
1616401626|5c:aa:fd:5c:b0:4d|82
1616401626|d4:c9:4b:71:39:f2|94
1616401641|da:a1:19:18:d9:41|93
1616401641|dc:f7:56:61:f9:c2|93
1616401641|5c:aa:fd:5c:b0:4d|83
1616401641|da:a1:19:48:fc:56|93
1616401656|6c:00:6b:f1:08:d5|91
1616401656|12:3c:74:3b:d5:3b|75
1616401656|7a:74:4d:9b:4f:44|93
1616401656|c2:84:66:8f:b1:a4|93
1616401656|8e:ab:a8:ed:dd:97|68
1616401656|5c:ac:4c:23:a3:76|91
1616401656|5c:aa:fd:5c:b0:4d|83
1616401656|f4:ce:46:50:ad:42|92
1616401656|fc:aa:b6:14:77:05|88
1616401656|da:a1:19:18:d9:41|93
1616401671|fe:02:39:34:23:ee|79
1616401671|5c:aa:fd:5c:b0:4d|82
1616401671|da:a1:19:9e:91:05|88
1616401671|5c:ac:4c:23:a3:76|90
1616401671|28:f0:76:14:84:f2|90
1616401671|6c:00:6b:f1:08:d5|91
1616401686|aa:e2:49:c7:9d:cf|67
1616401686|02:ea:02:f1:de:56|89
1616401686|5c:ac:4c:23:a3:76|90
1616401686|c0:d9:62:76:ad:b4|87
1616401686|5c:aa:fd:5c:b0:4d|83
1616401686|76:b4:17:5b:e2:ff|82
1616401686|fe:02:39:34:23:ee|79
1616401701|20:da:22:e1:8d:81|85
1616401701|ac:5f:3e:f4:e0:3f|77
1616401701|ea:c6:64:c5:47:50|73
1616401701|aa:e2:49:c7:9d:cf|67
1616401716|da:a1:19:78:0a:33|92
1616401716|02:00:00:00:00:00|93
1616401716|ba:41:a4:bc:12:3b|74
1616401716|5c:ac:4c:23:a3:76|91
1616401716|60:1d:91:1a:1f:9d|91
1616401716|ac:5f:3e:f4:e0:3f|73
1616401716|5c:aa:fd:5c:b0:4d|82
1616401716|20:da:22:e1:8d:81|85
1616401731|da:a1:19:fd:9b:dd|94
1616401731|d4:c9:4b:6f:a9:af|93
1616401731|5c:ac:4c:23:a3:76|91
1616401731|5c:aa:fd:5c:b0:4d|82
1616401731|24:46:c8:d3:1b:5a|93
1616401731|00:02:36:f0:05:1e|93
1616401746|ee:5d:f0:3b:ce:f8|91
1616401746|d0:d7:83:00:43:7a|91
1616401746|5c:ac:4c:23:a3:76|94
1616401746|f4:ce:46:50:ad:42|92
1616401746|06:40:58:a1:db:b7|91
1616401746|5c:aa:fd:5c:b0:4d|83
1616401746|e2:57:83:04:06:96|86
1616401746|be:b4:4d:1d:f0:5f|85
1616401746|02:9d:e0:5d:02:46|90
1616401746|da:a1:19:fd:9b:dd|94
1616401761|5c:ac:4c:23:a3:76|91
1616401761|9a:af:19:41:49:b6|92
1616401761|ea:2f:80:cd:5a:a7|68
1616401761|d2:05:75:48:02:80|91
1616401761|36:c9:85:8b:99:3b|80
1616401761|5c:aa:fd:5c:b0:4d|82
1616401761|c0:d9:62:76:ad:b4|86
1616401776|46:6a:d1:4e:50:4d|69
1616401776|8e:35:ca:c8:f2:17|90
1616401776|5c:aa:fd:5c:b0:4d|83
1616401776|ec:51:bc:e4:4d:23|91
1616401776|3a:dd:6e:5c:14:6a|63
1616401776|ca:cc:6a:70:a0:17|85
1616401776|00:0c:e7:07:9d:b3|91
1616401776|5c:ac:4c:23:a3:76|91
1616401791|5c:ac:4c:23:a3:76|92
1616401791|16:de:65:6e:5f:aa|89
1616401791|5c:aa:fd:5c:b0:4d|83
1616401791|66:ca:33:e9:b4:84|87
1616401806|5c:aa:fd:5c:b0:4d|84
1616401806|0a:a6:4d:85:75:86|82
1616401806|7e:93:b2:d5:8b:9a|66
1616401806|5c:ac:4c:23:a3:76|92
1616401821|02:98:28:fa:bc:6b|66
1616401821|0e:b5:27:cb:ba:b8|89
1616401821|5a:b7:2e:0c:1e:ae|65
1616401821|42:83:3d:7e:65:14|90
1616401821|02:17:30:b1:47:d7|82
1616401821|5c:aa:fd:5c:b0:4d|82
1616401836|5c:ac:4c:23:a3:76|90
1616401836|ac:5f:3e:f4:e0:3f|82
1616401836|da:a1:19:e8:8e:eb|94
1616401836|5c:aa:fd:5c:b0:4d|82
1616401836|02:23:fb:ed:73:fa|73
1616401836|92:35:d7:3c:fc:f1|92
1616401836|04:b4:29:e2:5d:23|74
1616401836|02:98:28:fa:bc:6b|66
1616401851|5c:ac:4c:23:a3:76|92
1616401851|02:50:fd:cc:f9:5c|86
1616401866|6a:ac:6b:9a:34:23|81
1616401866|c8:58:c0:88:a4:e6|89
1616401866|5c:aa:fd:5c:b0:4d|82
1616401866|86:88:08:a8:72:e2|74
1616401866|5c:ac:4c:23:a3:76|92
1616401881|fa:7b:5e:64:9e:68|86
1616401881|5c:ac:4c:23:a3:76|91
1616401881|58:40:4e:e0:a1:aa|93
1616401881|6a:ac:6b:9a:34:23|81
1616401896|c0:d9:62:76:ad:b4|89
1616401896|5c:aa:fd:5c:b0:4d|82
1616401911|5c:aa:fd:5c:b0:4d|82
1616401911|46:2a:eb:b4:f4:0b|78
1616401911|28:f0:76:14:84:f2|93
1616401911|b6:21:b0:6d:7b:e9|74
1616401911|c0:d9:62:76:ad:b4|89
1616401926|02:50:6e:11:31:56|79
1616401926|ba:9a:4e:81:22:94|75
1616401926|5c:ac:4c:23:a3:76|91
1616401926|5c:aa:fd:5c:b0:4d|82
1616401941|72:95:a7:ca:ce:c5|92
1616401941|02:d6:b4:d3:4e:f0|90
1616401941|b2:c3:09:79:57:5b|68
1616401941|5c:aa:fd:5c:b0:4d|82
1616401941|02:50:6e:11:31:56|79
1616401956|0e:c9:f3:35:22:c2|76
1616401956|de:dc:82:59:7a:ac|73
1616401956|1a:97:ac:45:6b:d6|68
1616401956|5c:aa:fd:5c:b0:4d|83
1616401956|72:95:a7:ca:ce:c5|92
1616401971|42:d6:b2:ef:20:ff|90
1616401971|d6:9d:0e:e1:28:db|92
1616401971|00:90:4c:91:a0:cb|92
1616401971|0e:c9:f3:35:22:c2|76
1616401986|8e:a4:c3:53:06:d1|90
1616401986|b6:33:a5:8f:9e:d5|92
1616401986|5c:aa:fd:5c:b0:4d|82
1616401986|3e:a8:08:61:f9:fd|59
1616401986|e6:e8:14:3c:51:b6|90
1616401986|c0:d9:62:76:ad:b4|89
1616401986|5c:ac:4c:23:a3:76|90
1616401986|42:d6:b2:ef:20:ff|90
1616402001|02:49:ca:fa:5c:34|89
1616402001|c2:20:c8:2e:42:1f|77
1616402001|f4:ce:46:50:ad:42|92
1616402001|5c:aa:fd:5c:b0:4d|82
1616402001|ca:88:1e:66:1e:63|82
1616402001|ce:57:3c:a9:0c:44|91
1616402001|02:f2:2c:99:50:6c|77
1616402016|26:75:5f:ef:a7:2c|85
1616402016|24:46:c8:d3:0f:a2|95
1616402016|60:1d:91:92:21:71|88
1616402016|5c:aa:fd:5c:b0:4d|82
1616402016|5c:ac:4c:23:a3:76|92
1616402031|02:b3:ee:85:e6:d6|93
1616402031|ec:9b:f3:9d:4a:18|90
1616402031|28:f0:76:14:84:f2|82
1616402031|5c:ac:4c:23:a3:76|92
1616402031|26:75:5f:ef:a7:2c|85
1616402046|16:5c:b5:28:bd:4d|54
1616402046|5c:ac:4c:23:a3:76|90
1616402046|00:0e:8e:8f:33:39|90
1616402061|aa:d4:b2:74:db:52|52
1616402061|02:13:22:1a:9e:34|71
1616402061|f2:23:cd:1a:14:11|77
1616402061|02:7f:23:a6:b3:92|64
1616402061|5c:ac:4c:23:a3:76|91
1616402061|02:17:8d:6a:37:b8|85
1616402061|5c:aa:fd:5c:b0:4d|82
1616402061|22:2b:79:1d:20:74|93
1616402076|c0:d9:62:76:ad:b4|89
1616402076|5c:aa:fd:5c:b0:4d|81
1616402076|f4:ce:46:50:ad:42|93
1616402076|5c:ac:4c:23:a3:76|91
1616402076|aa:d4:b2:74:db:52|52
1616402091|5e:69:34:84:ea:ea|94
1616402091|5c:ac:4c:23:a3:76|90
1616402091|5c:aa:fd:5c:b0:4d|81
1616402091|28:f0:76:14:84:f2|88
1616402091|da:a1:19:43:3b:11|90
1616402091|c0:d9:62:76:ad:b4|89
1616402106|02:69:ce:76:3c:7a|93
1616402106|b6:c8:0a:ac:9a:ad|66
1616402106|5c:ac:4c:23:a3:76|91
1616402106|00:02:36:f0:03:f8|85
1616402106|5c:aa:fd:5c:b0:4d|83
1616402106|5e:69:34:84:ea:ea|94
1616402121|06:ef:0d:84:c7:42|90
1616402121|c0:8c:71:8d:9c:b6|93
1616402121|02:92:53:4f:29:0b|84
1616402121|02:8b:9a:b8:99:ba|95
1616402121|b6:12:df:75:06:6e|72
1616402121|02:9c:64:12:ea:15|77
1616402121|00:02:36:f0:03:f8|89
1616402121|24:46:c8:d3:5f:e2|93
1616402121|ee:0e:54:63:27:a4|90
1616402121|02:78:70:b2:f2:a0|86
1616402121|02:69:ce:76:3c:7a|93
1616402136|5c:aa:fd:5c:b0:4d|82
1616402136|5c:ac:4c:23:a3:76|91
1616402151|da:a1:19:a7:13:28|88
1616402151|5c:ac:4c:23:a3:76|91
1616402151|5c:aa:fd:5c:b0:4d|82
1616402166|82:3b:d4:ba:47:53|91
1616402166|5c:ac:4c:23:a3:76|92
1616402166|c2:d6:fd:84:cc:1a|93
1616402166|f4:ce:46:50:ad:42|94
1616402166|5c:aa:fd:5c:b0:4d|83
1616402181|24:46:c8:d3:b5:e5|88
1616402181|02:7e:e1:a2:d3:d5|76
1616402181|5c:ac:4c:23:a3:76|92
1616402181|02:f4:34:ae:6a:bd|81
1616402181|5c:aa:fd:5c:b0:4d|82
1616402181|da:a1:19:a7:13:28|90
1616402181|ca:73:2d:c2:87:43|81
1616402181|82:3b:d4:ba:47:53|91
1616402196|66:b4:61:86:69:70|94
1616402196|46:e3:55:38:d7:ee|85
1616402196|5c:ac:4c:23:a3:76|90
1616402196|5c:aa:fd:5c:b0:4d|83
1616402196|24:46:c8:d3:b5:e5|88
1616402211|62:43:32:9f:72:97|91
1616402211|5c:ac:4c:23:a3:76|92
1616402211|da:a1:19:a7:13:28|90
1616402211|28:f0:76:14:84:f2|90
1616402211|02:00:00:00:00:00|90
1616402211|5c:aa:fd:5c:b0:4d|82
1616402211|66:b4:61:86:69:70|94
1616402226|02:81:e9:dd:41:4b|90
1616402226|5c:ac:4c:23:a3:76|94
1616402226|5c:aa:fd:5c:b0:4d|83
1616402226|6a:ee:3d:e1:1a:83|88
1616402241|02:80:86:ce:b6:4a|70
1616402241|72:3e:36:7a:c2:4c|64
1616402241|1a:da:79:04:4c:59|55
1616402241|02:96:79:b5:ed:15|59
1616402241|02:4f:48:b2:8d:d6|69
1616402256|da:a1:19:a7:13:28|89
1616402256|5c:ac:4c:23:a3:76|92
1616402256|da:1e:dd:38:f7:07|93
1616402256|02:e3:42:7d:8d:9c|90
1616402256|f4:ce:46:50:ad:42|91
1616402256|5c:aa:fd:5c:b0:4d|82
1616402271|00:02:36:f0:06:19|91
1616402271|5c:ac:4c:23:a3:76|92
1616402271|28:f0:76:14:84:f2|86
1616402271|26:68:b0:5e:62:de|87
1616402271|da:a1:19:a7:13:28|93
1616402286|5c:aa:fd:5c:b0:4d|83
1616402286|00:02:36:f0:06:19|91
1616402301|00:12:4e:23:8d:4d|91
1616402301|5c:ac:4c:23:a3:76|91
1616402301|c0:d9:62:76:ad:b4|85
1616402301|72:7d:0a:5c:f5:0b|90
1616402301|da:a1:19:a7:13:28|87
1616402301|5c:aa:fd:5c:b0:4d|83
1616402316|da:25:39:f4:4a:8d|91
1616402316|5c:ac:4c:23:a3:76|91
1616402316|da:a1:19:a7:13:28|89
1616402331|da:a1:19:48:4f:1c|92
1616402331|be:ad:8c:f4:fd:aa|92
1616402331|0e:ba:f6:b8:7a:30|89
1616402331|5c:ac:4c:23:a3:76|91
1616402331|28:f0:76:14:84:f2|93
1616402331|62:b6:0a:c3:bb:a4|89
1616402331|5c:aa:fd:5c:b0:4d|82
1616402331|fe:e7:48:c0:7d:23|93
1616402331|da:a1:19:a7:13:28|91
1616402331|f4:ce:46:50:ad:42|93
1616402346|5c:ac:4c:23:a3:76|93
1616402346|02:00:00:00:00:00|94
1616402346|b2:25:e6:fc:0e:ea|91
1616402346|5c:aa:fd:5c:b0:4d|82
1616402346|da:a1:19:48:4f:1c|92
1616402361|02:61:07:05:d5:39|85
1616402361|02:00:00:00:00:00|87
1616402361|02:10:72:da:f4:ed|73
1616402361|5c:aa:fd:5c:b0:4d|82
1616402361|04:b4:29:e2:5d:23|79
1616402361|02:84:8e:0e:8a:91|77
1616402361|5c:ac:4c:23:a3:76|93
1616402376|22:d9:62:76:ad:b4|89
1616402376|02:0c:b1:a3:ba:99|80
1616402376|5c:ac:4c:23:a3:76|91
1616402376|a2:e4:61:63:2a:7e|92
1616402376|5c:aa:fd:5c:b0:4d|82
1616402376|bc:75:36:74:e6:c2|90
1616402376|02:61:07:05:d5:39|85
1616402391|5c:ac:4c:23:a3:76|92
1616402391|0a:11:e6:70:20:3d|88
1616402391|da:a1:19:48:d5:0c|87
1616402391|22:d9:62:76:ad:b4|89
1616402406|da:a1:19:72:cc:7c|89
1616402406|a4:50:46:1f:5a:27|84
1616402406|4e:eb:6d:e7:f9:e7|89
1616402406|5c:aa:fd:5c:b0:4d|83
1616402406|5c:ac:4c:23:a3:76|92
1616402421|d8:9b:3b:4f:9a:15|91
1616402421|5c:ac:4c:23:a3:76|92
1616402421|5a:50:4f:10:8e:3a|90
1616402421|5c:aa:fd:5c:b0:4d|83
1616402421|f6:5e:e2:5c:bc:86|92
1616402421|24:18:1d:c5:7e:a0|92
1616402421|da:a1:19:72:cc:7c|90
1616402436|5c:ac:4c:23:a3:76|90
1616402436|cd:51:22:7e:f0:6b|88
1616402436|d8:9b:3b:4f:9a:15|89
1616402451|c0:d9:62:76:ad:b4|90
1616402451|d8:9b:3b:4f:9a:15|87
1616402451|c4:18:e9:e4:6a:af|92
1616402451|28:f0:76:14:84:f2|82
1616402451|5c:aa:fd:5c:b0:4d|82
1616402451|5c:ac:4c:23:a3:76|91
1616402466|00:12:4e:23:8e:65|91
1616402466|5c:aa:fd:5c:b0:4d|82
1616402466|5c:ac:4c:23:a3:76|90
1616402481|ea:e6:0c:9a:8c:ce|73
1616402481|b2:6f:73:a0:0b:02|81
1616402481|06:c8:07:69:c8:65|90
1616402481|5c:ac:4c:23:a3:76|90
1616402481|9e:d1:27:35:c1:4d|74
1616402481|4a:24:cd:53:29:fa|89
1616402481|a6:0e:8e:66:6a:eb|72
1616402481|5c:aa:fd:5c:b0:4d|82
1616402481|36:6a:6a:30:4e:c0|73
1616402496|00:0c:e7:56:03:fc|91
1616402496|5c:aa:fd:5c:b0:4d|83
1616402496|f2:05:ec:21:15:df|78
1616402496|fa:35:39:7c:35:3b|90
1616402496|ea:e6:0c:9a:8c:ce|73
1616402511|5c:aa:fd:5c:b0:4d|83
1616402511|28:f0:76:14:84:f2|89
1616402511|5c:ac:4c:23:a3:76|90
1616402511|a8:81:95:2d:19:fc|93
1616402526|5c:ac:4c:23:a3:76|92
1616402526|99:ef:28:63:2d:70|90
1616402526|5c:aa:fd:5c:b0:4d|84
1616402541|5c:ac:4c:23:a3:76|92
1616402556|86:b8:b8:7a:02:82|90
1616402556|24:46:c8:d2:cc:59|94
1616402556|aa:95:ec:65:8e:a6|76
1616402556|5c:ac:4c:23:a3:76|91
1616402556|5c:aa:fd:5c:b0:4d|82
1616402571|42:88:0a:4b:a3:28|64
1616402571|28:f0:76:14:84:f2|92
1616402571|56:76:00:0d:48:5b|94
1616402571|9a:9a:d3:05:05:3b|60
1616402571|5c:ac:4c:23:a3:76|91
1616402586|5e:40:eb:96:f9:a2|74
1616402586|54:b1:21:aa:eb:38|87
1616402586|c0:d9:62:76:ad:b4|84
1616402586|96:5f:f8:a5:4e:01|77
1616402586|f4:ce:46:50:ad:42|91
1616402586|5c:aa:fd:5c:b0:4d|83
1616402601|3e:94:40:db:f3:78|73
1616402601|a2:3c:4e:01:0f:9d|92
1616402601|5c:ac:4c:23:a3:76|91
1616402601|02:a2:fa:2b:3b:ae|92
1616402601|d2:d4:42:12:00:6e|76
1616402601|3a:b4:1d:90:e6:b0|75
1616402601|5c:aa:fd:5c:b0:4d|82
1616402601|5e:40:eb:96:f9:a2|74
1616402616|5c:aa:fd:5c:b0:4d|83
1616402616|5c:ac:4c:23:a3:76|92
1616402616|fe:8d:94:1d:47:72|90
1616402616|3e:94:40:db:f3:78|73
1616402631|e2:22:78:f2:1d:6e|89
1616402631|5c:ac:4c:23:a3:76|91
1616402646|f6:bc:75:70:88:d0|67
1616402646|5c:ac:4c:23:a3:76|90
1616402646|5c:aa:fd:5c:b0:4d|83
1616402646|e2:22:78:f2:1d:6e|89
1616402661|ec:f3:42:23:05:65|87
1616402661|de:bd:bf:d6:a8:38|70
1616402661|5c:aa:fd:5c:b0:4d|82
1616402661|5a:0d:93:09:9e:ef|69
1616402661|22:d9:62:76:ad:b4|86
1616402661|f6:bc:75:70:88:d0|67
1616402676|f4:ce:46:50:ad:42|94
1616402676|4a:e4:e0:97:5f:b5|66
1616402676|5c:aa:fd:5c:b0:4d|82
1616402676|da:9c:d8:7c:f4:1b|75
1616402676|2a:68:64:ed:8c:d4|78
1616402691|28:f0:76:14:84:f2|82
1616402691|5c:aa:fd:5c:b0:4d|82
1616402691|5c:ac:4c:23:a3:76|92
1616402706|82:c6:1d:cf:5b:8f|64
1616402706|7a:2f:ce:d7:38:4e|90
1616402706|66:ed:e7:ab:c0:e5|89
1616402706|28:f0:76:14:84:f2|82
1616402721|66:d2:a6:50:19:99|69
1616402721|02:0c:93:88:2f:d0|71
1616402721|5c:aa:fd:5c:b0:4d|82
1616402721|26:60:6d:2e:2f:39|73
1616402721|92:c9:34:da:57:57|72
1616402721|5c:ac:4c:23:a3:76|90
1616402721|82:c6:1d:cf:5b:8f|64
1616402736|62:47:08:9f:2e:39|67
1616402736|5c:ac:4c:23:a3:76|92
1616402736|5a:08:bc:10:cd:df|91
1616402736|c0:d9:62:76:ad:b4|85
1616402736|d6:ae:2f:ff:4e:d3|64
1616402736|5c:aa:fd:5c:b0:4d|83
1616402736|20:2d:07:d9:7f:ed|92
1616402751|5c:ac:4c:23:a3:76|91
1616402751|2a:e3:45:5e:cd:c0|92
1616402751|f4:ce:46:50:ad:42|93
1616402751|ce:31:88:78:7a:24|88
1616402751|2e:1e:4e:97:87:b5|92
1616402766|5c:ac:4c:23:a3:76|91
1616402766|5c:aa:fd:5c:b0:4d|83
1616402766|de:44:49:9f:cd:30|86
1616402766|8e:84:82:95:82:6e|89
1616402781|26:69:52:27:11:8e|56
1616402781|6a:4c:3e:aa:40:51|73
1616402781|aa:fd:ca:ec:86:d7|58
1616402781|94:7b:e7:93:51:ad|87
1616402781|8a:5c:9d:be:35:b6|63
1616402781|86:d9:f5:e0:19:5a|94
1616402781|66:1c:d0:10:88:03|71
1616402781|96:70:16:17:4d:46|93
1616402781|5c:aa:fd:5c:b0:4d|82
1616402781|02:00:00:00:00:00|93
1616402796|c0:8c:71:8d:62:c6|89
1616402796|66:f4:c9:5a:d3:60|59
1616402796|5c:aa:fd:5c:b0:4d|82
1616402796|02:00:00:00:00:00|93
1616402796|26:69:52:27:11:8e|56
1616402811|1e:d5:29:76:ac:bc|90
1616402811|c0:8c:71:8d:62:c6|92
1616402811|24:46:c8:d3:76:89|89
1616402811|5c:ac:4c:23:a3:76|91
1616402811|c0:d9:62:76:ad:b4|91
1616402811|02:00:00:00:00:00|88
1616402826|04:d1:3a:6f:b3:b8|92
1616402826|c0:8c:71:8d:62:c6|95
1616402826|5c:ac:4c:23:a3:76|91
1616402826|02:00:00:00:00:00|94
1616402841|66:b3:f3:8f:e3:8e|94
1616402841|22:38:e3:45:54:cc|91
1616402841|de:b7:2e:02:29:20|91
1616402841|f4:ce:46:50:ad:42|92
1616402841|5c:ac:4c:23:a3:76|91
1616402841|02:00:00:00:00:00|92
1616402841|5c:aa:fd:5c:b0:4d|83
1616402841|04:d1:3a:6f:b3:b8|92
1616402856|5c:ac:4c:23:a3:76|91
1616402856|5c:aa:fd:5c:b0:4d|83
1616402856|02:00:00:00:00:00|88
1616402856|66:b3:f3:8f:e3:8e|94
1616402871|28:f0:76:14:84:f2|88
1616402871|5c:aa:fd:5c:b0:4d|82
1616402886|ba:af:60:75:fc:76|92
1616402886|ea:c5:7a:f9:0c:fe|74
1616402886|f2:2c:bc:1a:d6:2b|68
1616402886|5c:ac:4c:23:a3:76|92
1616402886|c0:d9:62:76:ad:b4|90
1616402886|02:00:00:00:00:00|93
1616402886|22:d9:62:76:ad:b4|87
1616402886|5c:aa:fd:5c:b0:4d|83
1616402886|da:b0:31:51:d3:60|68
1616402901|62:18:d9:19:ee:f1|63
1616402901|8a:ab:c5:32:f4:86|61
1616402901|8a:00:fb:2f:c9:31|90
1616402901|5c:aa:fd:5c:b0:4d|82
1616402901|7e:16:dc:dc:b5:8c|91
1616402901|c2:bb:6e:d3:74:67|69
1616402901|c4:18:e9:e4:6a:af|87
1616402901|02:4a:85:3d:f0:45|68
1616402916|7a:75:56:10:75:b8|93
1616402916|1e:6d:76:4d:46:8e|93
1616402916|44:2a:60:de:b8:e6|92
1616402916|fe:e6:31:5d:c1:21|91
1616402916|5c:aa:fd:5c:b0:4d|83
1616402916|62:18:d9:19:ee:f1|63
1616402931|da:da:6a:49:4e:1e|92
1616402931|5c:aa:fd:5c:b0:4d|83
1616402946|26:16:88:18:f8:8a|70
1616402946|56:37:33:33:b8:36|69
1616402946|5c:ac:4c:23:a3:76|92
1616402946|b6:eb:2f:4d:d8:6d|76
1616402946|00:08:22:02:f8:fb|89
1616402961|c0:d9:62:76:ad:b4|85
1616402961|3e:f0:ae:03:a3:ff|64
1616402961|d2:ac:ac:0a:09:e8|70
1616402961|26:16:88:18:f8:8a|70
1616402976|ba:5c:1c:1b:8a:1f|91
1616402976|5c:ac:4c:23:a3:76|92
1616402976|6e:73:b5:ae:a7:f5|70
1616402991|5c:aa:fd:5c:b0:4d|83
1616402991|ba:5c:1c:1b:8a:1f|91
1616403006|5c:ac:4c:23:a3:76|89
1616403006|1e:42:7d:02:86:7e|90
1616403006|02:00:00:00:00:00|92
1616403006|5c:aa:fd:5c:b0:4d|82
1616403006|f4:ce:46:50:ad:42|92
1616403021|6e:34:ff:9c:39:e1|68
1616403021|4e:be:85:63:98:d8|89
1616403021|5c:aa:fd:5c:b0:4d|84
1616403021|5c:ac:4c:23:a3:76|89
1616403036|3c:57:6c:62:7a:1d|93
1616403036|d6:69:37:5b:60:c3|60
1616403036|ba:71:ff:cc:95:8d|61
1616403036|0a:8c:f4:b2:d0:de|65
1616403036|5c:aa:fd:5c:b0:4d|82
1616403036|6e:34:ff:9c:39:e1|68
1616403051|5c:ac:4c:23:a3:76|90
1616403051|5c:aa:fd:5c:b0:4d|82
1616403051|04:b4:29:e2:5d:23|67
1616403051|f6:67:01:0a:cf:13|66
1616403051|2e:cd:23:51:88:5e|67
1616403051|3c:57:6c:62:7a:1d|93
1616403066|5c:aa:fd:5c:b0:4d|82
1616403066|02:00:00:00:00:00|87
1616403066|5c:ac:4c:23:a3:76|90
1616403081|4a:b5:63:0e:99:69|90
1616403081|ce:6f:e8:8f:da:0b|92
1616403081|d6:15:10:89:06:df|92
1616403081|5c:aa:fd:5c:b0:4d|82
1616403081|1e:42:7d:45:43:43|91
1616403096|22:d9:62:76:ad:b4|86
1616403096|fa:26:3a:fa:ae:5f|91
1616403096|5c:aa:fd:5c:b0:4d|84
1616403096|be:bc:9f:a8:93:98|92
1616403096|46:01:0e:a1:e2:05|89
1616403096|16:47:2d:9a:02:8a|91
1616403096|5c:ac:4c:23:a3:76|90
1616403111|02:c3:ce:72:65:b5|92
1616403111|28:f0:76:14:84:f2|82
1616403111|5c:aa:fd:5c:b0:4d|83
1616403111|c0:d9:62:76:ad:b4|86
1616403111|5c:ac:4c:23:a3:76|92
1616403111|22:d9:62:76:ad:b4|86
1616403126|00:02:36:f0:05:07|91
1616403126|5c:aa:fd:5c:b0:4d|82
1616403141|ca:1b:42:bf:c2:cc|91
1616403141|b0:e2:35:c1:0b:3d|79
1616403141|da:a1:19:a7:13:28|87
1616403156|c0:d9:62:76:ad:b4|89
1616403156|da:a1:19:c4:f0:99|70
1616403156|5c:aa:fd:5c:b0:4d|83
1616403156|b0:e2:35:c1:0b:3d|71
1616403156|ca:1b:42:bf:c2:cc|91
1616403171|28:f0:76:14:84:f2|89
1616403171|9a:f6:21:5b:59:59|87
1616403171|c0:d9:62:76:ad:b4|89
1616403186|f4:ce:46:50:ad:42|91
1616403186|5c:aa:fd:5c:b0:4d|83
1616403201|06:b6:8f:6e:37:a2|92
1616403201|62:77:77:04:e1:2e|92
1616403201|5c:aa:fd:5c:b0:4d|82
1616403201|ce:65:a3:07:e1:70|93
1616403216|0a:e7:08:da:8e:93|89
1616403216|44:2a:60:de:b8:e6|82
1616403216|5c:aa:fd:5c:b0:4d|82
1616403216|06:b6:8f:6e:37:a2|92
1616403231|b2:43:91:24:8e:aa|77
1616403231|da:a1:19:2e:2c:8b|67
1616403231|e8:b4:c8:f3:f0:ef|92
1616403231|da:a1:19:65:62:14|72
1616403231|c6:6b:30:a6:ca:0c|88
1616403231|0a:e7:08:da:8e:93|89
1616403246|da:a1:19:f9:f9:97|92
1616403246|ae:9c:99:21:de:c0|83
1616403246|74:eb:80:81:b5:a6|94
1616403246|da:a1:19:80:83:9d|72
1616403246|5c:aa:fd:5c:b0:4d|82
1616403246|5c:ac:4c:23:a3:76|91
1616403246|b2:43:91:24:8e:aa|77
1616403261|42:d2:25:86:bd:38|77
1616403261|8a:fb:4c:78:22:95|87
1616403261|5a:43:82:b6:61:57|91
1616403261|12:0e:a5:81:fa:8b|83
1616403261|5c:aa:fd:5c:b0:4d|82
1616403261|72:09:ba:10:72:29|91
1616403261|f4:ce:46:50:ad:42|93
1616403261|5c:ac:4c:23:a3:76|91
1616403261|da:a1:19:f9:f9:97|92
1616403276|52:b7:df:8e:a3:a2|90
1616403276|36:c8:76:89:d8:60|86
1616403276|5c:ac:4c:23:a3:76|91
1616403276|46:fe:16:2c:d1:68|89
1616403276|5c:aa:fd:5c:b0:4d|82
1616403291|da:a1:19:fb:98:8d|92
1616403291|9c:8d:7c:8a:9b:b8|92
1616403291|28:f0:76:14:84:f2|91
1616403291|5c:aa:fd:5c:b0:4d|82
1616403291|5c:ac:4c:23:a3:76|92
1616403291|1a:cb:21:f5:2b:fc|87
1616403306|e6:e5:8e:ad:e6:7f|80
1616403306|12:6c:b5:3b:cb:54|91
1616403306|da:a1:19:8c:ec:e6|79
1616403306|da:37:0b:cd:2e:98|78
1616403306|c2:af:eb:9b:4d:7e|88
1616403306|5c:aa:fd:5c:b0:4d|83
1616403306|00:02:36:f0:05:25|93
1616403321|26:6c:b3:ba:3d:4d|93
1616403321|da:a1:19:da:26:8b|71
1616403321|5c:aa:fd:5c:b0:4d|82
1616403321|e6:e5:8e:ad:e6:7f|80
1616403336|5c:ac:4c:23:a3:76|91
1616403336|02:00:00:00:00:00|91
1616403336|5c:aa:fd:5c:b0:4d|83
1616403336|d6:c2:1e:29:eb:d2|91
1616403336|da:a1:19:43:cf:de|73
1616403336|d4:c9:4b:6f:9f:0e|88
1616403336|26:6c:b3:ba:3d:4d|93
1616403351|02:ba:29:e7:5b:54|92
1616403351|28:f0:76:14:84:f2|82
1616403351|5c:ac:4c:23:a3:76|92
1616403351|5c:aa:fd:5c:b0:4d|82
1616403366|da:a1:19:ab:01:86|69
1616403366|5c:ac:4c:23:a3:76|91
1616403366|12:5f:87:0a:18:18|74
1616403366|5c:aa:fd:5c:b0:4d|83
1616403381|c0:d9:62:76:ad:b4|85
1616403381|1a:ed:d2:fe:b8:b5|93
1616403381|b6:b1:0e:b5:d1:5e|90
1616403381|fe:3b:a9:96:77:7b|81
1616403381|26:a9:0a:26:0f:b3|93
1616403381|5c:ac:4c:23:a3:76|90
1616403381|e2:82:44:4a:50:71|66
1616403381|5c:aa:fd:5c:b0:4d|82
1616403396|5c:aa:fd:5c:b0:4d|82
1616403396|c0:8c:71:8e:25:4a|93
1616403396|34:8b:75:68:52:22|90
1616403396|00:06:c6:58:a2:c1|95
1616403411|00:06:c6:58:a2:c1|92
1616403411|28:f0:76:14:84:f2|88
1616403411|5c:ac:4c:23:a3:76|92
1616403411|8c:f5:a3:62:00:c3|94
1616403411|5c:aa:fd:5c:b0:4d|83
1616403411|3e:39:07:2e:a4:f9|91
1616403426|b6:da:a5:7e:54:6f|90
1616403426|5c:ac:4c:23:a3:76|91
1616403426|5c:aa:fd:5c:b0:4d|82
1616403426|da:a1:19:a7:13:28|88
1616403441|c2:7f:2d:42:73:59|92
1616403441|3e:a1:54:8d:d7:b1|92
1616403441|5c:aa:fd:5c:b0:4d|83
1616403441|8c:f5:a3:62:00:c3|93
1616403441|b6:da:a5:7e:54:6f|90
1616403456|5c:ac:4c:23:a3:76|92
1616403456|5c:aa:fd:5c:b0:4d|82
1616403456|c2:7f:2d:42:73:59|92
1616403471|aa:00:a2:5c:25:f8|90
1616403471|28:f0:76:14:84:f2|92
1616403471|5c:aa:fd:5c:b0:4d|82
1616403471|5c:ac:4c:23:a3:76|91
1616403486|5c:aa:fd:5c:b0:4d|84
1616403486|aa:00:a2:5c:25:f8|90
1616403501|5c:ac:4c:23:a3:76|90
1616403516|92:6b:c5:ba:27:07|90
1616403516|5c:aa:fd:5c:b0:4d|81
1616403531|22:d9:62:76:ad:b4|88
1616403531|4a:e2:ad:20:80:d0|90
1616403531|24:46:c8:d3:00:e2|91
1616403531|96:03:c7:ab:c8:71|72
1616403531|5c:aa:fd:5c:b0:4d|82
1616403531|60:1d:91:91:cd:20|94
1616403531|d4:c9:4b:6f:aa:45|87
1616403546|da:a1:19:62:aa:ab|64
1616403546|06:b7:95:92:39:04|71
1616403546|56:96:ba:c9:20:7f|82
1616403546|24:46:c8:d2:da:fc|93
1616403546|5c:aa:fd:5c:b0:4d|83
1616403546|12:be:17:e6:bb:29|92
1616403546|da:a1:19:78:80:f1|91
1616403546|5c:ac:4c:23:a3:76|92
1616403546|22:d9:62:76:ad:b4|88
1616403561|04:b4:29:e2:5d:23|71
1616403561|da:a1:19:bd:cb:b4|61
1616403561|5c:aa:fd:5c:b0:4d|82
1616403561|c0:8c:71:8d:96:26|91
1616403561|da:a1:19:62:aa:ab|64
1616403576|9c:8d:7c:8a:9b:b8|90
1616403576|3c:57:6c:bf:ca:46|92
1616403576|5c:aa:fd:5c:b0:4d|83
1616403576|04:b4:29:e2:5d:23|71
1616403591|da:a1:19:a7:13:28|92
1616403606|c0:d9:62:76:ad:b4|89
1616403606|5c:aa:fd:5c:b0:4d|83
1616403621|5c:aa:fd:5c:b0:4d|84
1616403621|94:0e:6b:a7:9b:fb|86
1616403621|da:a2:98:f6:25:7f|79
1616403621|5c:ac:4c:23:a3:76|92
1616403636|5c:ac:4c:23:a3:76|92
1616403636|06:53:21:20:cf:2d|92
1616403651|28:f0:76:14:84:f2|83
1616403651|5c:aa:fd:5c:b0:4d|82
1616403666|5c:ac:4c:23:a3:76|91
1616403666|b2:f5:91:65:f8:73|91
1616403666|28:f0:76:14:84:f2|83
1616403681|c6:c0:c4:dd:fa:c6|93
1616403681|da:a1:19:e0:46:59|64
1616403681|5c:aa:fd:5c:b0:4d|82
1616403696|5c:ac:4c:23:a3:76|92
1616403696|5c:aa:fd:5c:b0:4d|84
1616403696|da:a1:19:33:fa:a2|64
1616403711|02:87:6d:84:b3:ed|82
1616403711|5c:aa:fd:5c:b0:4d|84
1616403726|28:b2:bd:55:4d:f8|91
1616403726|f2:63:5d:bd:ae:b8|90
1616403726|5c:aa:fd:5c:b0:4d|83
1616403726|5c:ac:4c:23:a3:76|91
1616403726|82:c4:5e:f1:04:30|91
1616403726|8a:4d:c1:5d:ac:5a|94
1616403741|da:a1:19:0f:98:2e|58
1616403741|00:0c:e7:81:8a:ad|90
1616403741|5c:ac:4c:23:a3:76|93
1616403741|5c:aa:fd:5c:b0:4d|83
1616403741|da:a1:19:f6:0e:6f|55
1616403741|28:b2:bd:55:4d:f8|91
1616403756|02:00:00:00:00:00|92
1616403756|5c:ac:4c:23:a3:76|92
1616403756|5c:aa:fd:5c:b0:4d|83
1616403756|da:a1:19:0f:98:2e|58
1616403771|28:f0:76:14:84:f2|88
1616403771|4a:a5:02:4d:f8:7f|89
1616403771|5c:ac:4c:23:a3:76|92
1616403771|66:26:b2:85:03:24|90
1616403771|96:ca:a1:25:a7:15|94
1616403771|5c:aa:fd:5c:b0:4d|84
1616403786|da:a1:19:6c:e3:b1|68
1616403786|aa:37:d9:0a:82:66|92
1616403786|5c:aa:fd:5c:b0:4d|82
1616403786|02:18:71:87:b7:68|89
1616403786|5c:ac:4c:23:a3:76|92
1616403786|28:f0:76:14:84:f2|88
1616403801|32:35:5b:67:e9:2a|75
1616403801|da:a1:19:a4:70:46|69
1616403801|e6:81:4e:c3:10:3c|72
1616403801|00:02:36:f0:03:e6|85
1616403801|5c:ac:4c:23:a3:76|91
1616403801|5c:aa:fd:5c:b0:4d|82
1616403801|da:a1:19:6c:e3:b1|68
1616403816|26:b4:64:da:e2:19|88
1616403816|ae:54:59:fa:97:f4|92
1616403816|da:a1:19:1a:de:b8|62
1616403816|5c:ac:4c:23:a3:76|91
1616403816|00:02:36:f0:03:e6|85
1616403816|7e:64:b5:ed:c2:f0|92
1616403831|aa:37:d9:0a:82:66|86
1616403831|5c:ac:4c:23:a3:76|93
1616403831|00:02:36:f0:03:e6|86
1616403831|c0:d9:62:76:ad:b4|87
1616403831|5c:aa:fd:5c:b0:4d|83
1616403846|da:a1:19:44:43:e7|89
1616403846|58:40:4e:e0:a1:aa|87
1616403846|d2:79:b9:e6:0e:a9|92
1616403846|5c:ac:4c:23:a3:76|91
1616403846|aa:37:d9:0a:82:66|86
1616403861|4e:aa:67:c0:b9:3d|93
1616403861|da:a1:19:1a:da:b5|93
1616403861|62:34:af:80:bc:ac|90
1616403861|1c:42:7d:8e:59:3f|89
1616403861|5c:ac:4c:23:a3:76|91
1616403861|58:40:4e:e0:a1:aa|92
1616403861|5c:aa:fd:5c:b0:4d|82
1616403861|da:a1:19:44:43:e7|89
1616403876|3c:57:6c:59:7a:3d|88
1616403876|5c:aa:fd:5c:b0:4d|84
1616403891|5c:ac:4c:23:a3:76|94
1616403891|da:a1:19:61:e6:e3|87
1616403891|92:f3:17:fb:92:a5|90
1616403891|3c:57:6c:59:7a:3d|82
1616403906|8e:24:7b:ea:6d:7d|79
1616403906|5c:ac:4c:23:a3:76|92
1616403906|00:12:4e:23:8e:b5|90
1616403921|5c:ac:4c:23:a3:76|92
1616403921|fe:25:d9:fe:74:14|83
1616403921|da:a1:19:ad:00:14|71
1616403921|12:8d:45:2c:2d:ef|89
1616403921|02:d6:ad:4c:15:0a|74
1616403921|36:bb:10:fc:9c:08|92
1616403921|5c:aa:fd:5c:b0:4d|81
1616403936|5c:ac:4c:23:a3:76|92
1616403936|5c:aa:fd:5c:b0:4d|84
1616403936|32:1d:90:e8:87:45|95
1616403936|da:a1:19:53:4c:d2|67
1616403951|ea:06:bb:16:49:26|79
1616403951|28:f0:76:14:84:f2|84
1616403951|02:23:7f:b7:7d:24|85
1616403951|5c:ac:4c:23:a3:76|92
1616403951|d4:c9:4b:6e:3a:87|87
1616403951|5c:aa:fd:5c:b0:4d|82
1616403951|00:12:4e:23:8e:b5|91
1616403966|fe:c6:36:7c:67:0a|92
1616403966|5c:aa:fd:5c:b0:4d|83
1616403966|ea:06:bb:16:49:26|79
1616403981|7e:95:e4:b3:ad:ee|89
1616403981|5c:aa:fd:5c:b0:4d|82
1616403981|22:d9:62:76:ad:b4|87
1616403981|54:b8:02:47:9a:68|93
1616403981|02:82:f5:7f:88:10|88
1616403981|60:1d:91:92:7e:04|91
1616403981|5c:ac:4c:23:a3:76|90
1616403981|fe:c6:36:7c:67:0a|92
1616403996|da:a1:19:8c:df:64|94
1616403996|5c:aa:fd:5c:b0:4d|83
1616403996|00:12:4e:23:8e:b5|92
1616403996|7e:95:e4:b3:ad:ee|89
1616404011|28:f0:76:14:84:f2|85
1616404011|5c:aa:fd:5c:b0:4d|84
1616404026|00:12:4e:23:8e:b5|90
1616404041|5c:ac:4c:23:a3:76|94
1616404041|5c:aa:fd:5c:b0:4d|82
1616404041|00:12:4e:23:8e:b5|94
1616404056|b2:66:0b:1c:bc:f9|92
1616404056|ea:45:4b:20:ba:1a|94
1616404056|5c:ac:4c:23:a3:76|93
1616404056|c0:d9:62:76:ad:b4|89
1616404056|5c:aa:fd:5c:b0:4d|83
1616404071|5c:aa:fd:5c:b0:4d|82
1616404071|5c:ac:4c:23:a3:76|91
