1616400893|00:d0:c9:f3:00:70|87
1616400908|40:f5:20:46:c5:40|60
1616400908|00:d0:c9:f3:00:70|89
1616400923|00:d0:c9:f3:00:70|89
1616400923|40:f5:20:46:c5:40|66
1616400938|00:d0:c9:f3:00:70|88
1616400953|40:f5:20:46:c5:40|64
1616400953|00:d0:c9:f3:00:70|88
1616400968|00:d0:c9:f3:00:70|89
1616400968|40:f5:20:46:c5:40|64
1616400983|54:b8:02:47:9a:68|87
1616400983|00:d0:c9:f3:00:70|89
1616400998|34:8b:75:2a:90:bb|93
1616400998|54:b8:02:47:9a:68|92
1616400998|28:f0:76:14:84:f2|91
1616400998|8c:83:e1:1f:7d:2c|94
1616400998|00:d0:c9:f3:00:70|89
1616401013|54:b8:02:47:9a:68|92
1616401013|00:d0:c9:f3:00:70|90
1616401013|34:8b:75:2a:90:bb|93
1616401028|00:d0:c9:f3:00:70|88
1616401043|00:d0:c9:f3:00:70|89
1616401058|28:f0:76:14:84:f2|91
1616401058|00:d0:c9:f3:00:70|90
1616401058|a8:34:6a:9e:60:4c|91
1616401073|00:d0:c9:f3:00:70|88
1616401088|00:d0:c9:f3:00:70|91
1616401103|00:d0:c9:f3:00:70|89
1616401118|00:d0:c9:f3:00:70|90
1616401133|00:d0:c9:f3:00:70|87
1616401148|00:d0:c9:f3:00:70|90
1616401163|00:d0:c9:f3:00:70|88
1616401178|00:d0:c9:f3:00:70|91
1616401193|00:d0:c9:f3:00:70|89
1616401208|00:d0:c9:f3:00:70|90
1616401223|00:d0:c9:f3:00:70|89
1616401238|00:d0:c9:f3:00:70|89
1616401253|00:d0:c9:f3:00:70|88
1616401268|00:d0:c9:f3:00:70|89
1616401283|00:d0:c9:f3:00:70|89
1616401298|28:f0:76:14:84:f2|89
1616401298|00:d0:c9:f3:00:70|91
1616401313|00:d0:c9:f3:00:70|89
1616401313|28:f0:76:14:84:f2|89
1616401328|00:d0:c9:f3:00:70|89
1616401343|00:d0:c9:f3:00:70|86
1616401358|ac:5f:3e:f4:e0:3f|75
1616401358|00:d0:c9:f3:00:70|89
1616401373|00:d0:c9:f3:00:70|91
1616401373|ac:5f:3e:f4:e0:3f|76
1616401388|fc:42:03:72:6d:27|91
1616401388|00:d0:c9:f3:00:70|90
1616401403|00:d0:c9:f3:00:70|89
1616401418|00:d0:c9:f3:00:70|88
1616401433|00:d0:c9:f3:00:70|88
1616401448|00:d0:c9:f3:00:70|88
1616401478|ac:5f:3e:f4:e0:3f|73
1616401493|ac:5f:3e:f4:e0:3f|73
1616401508|ac:5f:3e:f4:e0:3f|73
1616401523|00:d0:c9:f3:00:70|87
1616401523|ac:5f:3e:f4:e0:3f|73
1616401538|00:d0:c9:f3:00:70|89
1616401553|9c:e0:63:ef:a3:3b|91
1616401553|00:d0:c9:f3:00:70|89
1616401568|4c:49:e3:21:24:ae|88
1616401568|00:d0:c9:f3:00:70|88
1616401568|9c:e0:63:ef:a3:3b|91
1616401583|ac:5f:3e:f4:e0:3f|63
1616401583|00:d0:c9:f3:00:70|89
1616401583|4c:49:e3:21:24:ae|88
1616401598|00:d0:c9:f3:00:70|89
1616401598|ac:5f:3e:f4:e0:3f|63
1616401613|00:d0:c9:f3:00:70|87
1616401628|00:d0:c9:f3:00:70|89
1616401643|00:d0:c9:f3:00:70|88
1616401658|28:f0:76:14:84:f2|92
1616401658|00:d0:c9:f3:00:70|90
1616401673|00:d0:c9:f3:00:70|91
1616401673|28:f0:76:14:84:f2|92
1616401688|00:d0:c9:f3:00:70|90
1616401703|00:d0:c9:f3:00:70|90
1616401703|ac:5f:3e:f4:e0:3f|63
1616401718|28:f0:76:14:84:f2|89
1616401718|ac:5f:3e:f4:e0:3f|69
1616401718|00:d0:c9:f3:00:70|87
1616401733|9c:e0:63:ef:a3:3b|92
1616401733|00:d0:c9:f3:00:70|91
1616401733|28:f0:76:14:84:f2|89
1616401748|00:d0:c9:f3:00:70|90
1616401748|9c:e0:63:ef:a3:3b|92
1616401763|00:d0:c9:f3:00:70|89
1616401778|00:d0:c9:f3:00:70|88
1616401793|e0:24:81:54:00:f9|93
1616401793|00:d0:c9:f3:00:70|92
1616401808|00:d0:c9:f3:00:70|93
1616401808|e0:24:81:54:00:f9|93
1616401823|04:b4:29:e2:5d:23|57
1616401823|00:d0:c9:f3:00:70|88
1616401838|ac:5f:3e:f4:e0:3f|60
1616401838|00:d0:c9:f3:00:70|89
1616401838|04:b4:29:e2:5d:23|57
1616401853|c0:d3:c0:31:98:67|92
1616401853|00:d0:c9:f3:00:70|91
1616401868|00:d0:c9:f3:00:70|90
1616401868|c0:d3:c0:31:98:67|92
1616401883|00:d0:c9:f3:00:70|88
1616401898|00:d0:c9:f3:00:70|90
1616401913|00:d0:c9:f3:00:70|89
1616401928|00:d0:c9:f3:00:70|89
1616401943|00:d0:c9:f3:00:70|89
1616401958|00:d0:c9:f3:00:70|89
1616401973|d4:c9:4b:6f:df:3d|92
1616401973|00:d0:c9:f3:00:70|89
1616401988|00:d0:c9:f3:00:70|89
1616401988|d4:c9:4b:6f:df:3d|92
1616402003|00:d0:c9:f3:00:70|88
1616402018|00:d0:c9:f3:00:70|89
1616402033|00:d0:c9:f3:00:70|90
1616402048|00:d0:c9:f3:00:70|88
1616402063|00:d0:c9:f3:00:70|90
1616402078|00:d0:c9:f3:00:70|88
1616402093|28:f0:76:14:84:f2|92
1616402093|00:d0:c9:f3:00:70|90
1616402108|00:d0:c9:f3:00:70|91
1616402108|28:f0:76:14:84:f2|92
1616402123|00:d0:c9:f3:00:70|88
1616402138|00:d0:c9:f3:00:70|89
1616402153|28:f0:76:14:84:f2|91
1616402153|00:d0:c9:f3:00:70|90
1616402168|00:d0:c9:f3:00:70|87
1616402168|28:f0:76:14:84:f2|91
1616402183|00:d0:c9:f3:00:70|88
1616402198|00:d0:c9:f3:00:70|92
1616402213|00:d0:c9:f3:00:70|88
1616402228|00:d0:c9:f3:00:70|90
1616402243|00:d0:c9:f3:00:70|88
1616402258|c0:d3:c0:31:98:67|91
1616402258|00:d0:c9:f3:00:70|90
1616402273|00:d0:c9:f3:00:70|89
1616402273|c0:d3:c0:31:98:67|91
1616402288|00:d0:c9:f3:00:70|89
1616402303|00:d0:c9:f3:00:70|90
1616402318|00:d0:c9:f3:00:70|90
1616402333|28:f0:76:14:84:f2|92
1616402333|00:d0:c9:f3:00:70|89
1616402348|00:d0:c9:f3:00:70|89
1616402348|28:f0:76:14:84:f2|92
1616402363|04:b4:29:e2:5d:23|68
1616402363|00:d0:c9:f3:00:70|91
1616402378|00:d0:c9:f3:00:70|89
1616402378|04:b4:29:e2:5d:23|68
1616402393|28:f0:76:14:84:f2|87
1616402393|00:d0:c9:f3:00:70|89
1616402408|28:f0:76:14:84:f2|87
1616402423|00:d0:c9:f3:00:70|89
1616402438|00:d0:c9:f3:00:70|89
1616402453|00:d0:c9:f3:00:70|88
1616402453|98:49:14:cc:3a:20|87
1616402468|00:d0:c9:f3:00:70|90
1616402483|98:49:14:cc:3a:20|89
1616402483|00:d0:c9:f3:00:70|88
1616402498|00:d0:c9:f3:00:70|88
1616402498|98:49:14:cc:3a:20|89
1616402513|00:d0:c9:f3:00:70|87
1616402513|c4:18:e9:e4:6a:af|89
1616402528|98:49:14:cc:3a:20|89
1616402528|00:d0:c9:f3:00:70|88
1616402543|c0:d3:c0:31:98:67|92
1616402543|98:49:14:cc:3a:20|89
1616402558|00:d0:c9:f3:00:70|89
1616402558|c0:d3:c0:31:98:67|92
1616402573|98:49:14:cc:3a:20|93
1616402573|00:d0:c9:f3:00:70|90
1616402618|00:d0:c9:f3:00:70|88
1616402633|00:d0:c9:f3:00:70|91
1616402648|00:d0:c9:f3:00:70|92
1616402663|00:d0:c9:f3:00:70|89
1616402678|98:49:14:cc:3a:20|91
1616402678|00:d0:c9:f3:00:70|89
1616402693|00:d0:c9:f3:00:70|90
1616402693|98:49:14:cc:3a:20|91
1616402708|00:d0:c9:f3:00:70|88
1616402723|98:49:14:cc:3a:20|91
1616402723|00:d0:c9:f3:00:70|89
1616402738|00:d0:c9:f3:00:70|89
1616402738|98:49:14:cc:3a:20|91
1616402753|28:f0:76:14:84:f2|92
1616402753|00:d0:c9:f3:00:70|90
1616402768|00:d0:c9:f3:00:70|88
1616402783|00:d0:c9:f3:00:70|88
1616402783|c0:d3:c0:31:98:67|94
1616402798|98:49:14:cc:3a:20|91
1616402798|00:d0:c9:f3:00:70|87
1616402813|00:d0:c9:f3:00:70|90
1616402813|98:49:14:cc:3a:20|91
1616402828|00:d0:c9:f3:00:70|91
1616402843|00:d0:c9:f3:00:70|88
1616402858|00:d0:c9:f3:00:70|89
1616402873|98:49:14:cc:3a:20|90
1616402873|00:d0:c9:f3:00:70|88
1616402888|00:d0:c9:f3:00:70|88
1616402888|98:49:14:cc:3a:20|90
1616402903|00:d0:c9:f3:00:70|90
1616402918|98:49:14:cc:3a:20|92
1616402918|00:d0:c9:f3:00:70|90
1616402933|d4:c9:4b:6f:93:23|91
1616402933|00:d0:c9:f3:00:70|89
1616402933|98:49:14:cc:3a:20|92
1616402948|00:d0:c9:f3:00:70|91
1616402963|c0:d3:c0:31:98:67|94
1616402963|00:d0:c9:f3:00:70|91
1616402978|00:d0:c9:f3:00:70|91
1616402978|c0:d3:c0:31:98:67|94
1616402993|00:d0:c9:f3:00:70|89
1616403008|00:d0:c9:f3:00:70|91
1616403008|98:49:14:cc:3a:20|92
1616403023|00:d0:c9:f3:00:70|91
1616403038|04:b4:29:e2:5d:23|65
1616403038|00:d0:c9:f3:00:70|90
1616403053|00:d0:c9:f3:00:70|89
1616403068|c0:d3:c0:31:98:67|94
1616403068|00:d0:c9:f3:00:70|90
1616403083|c0:d3:c0:31:98:67|91
1616403083|00:d0:c9:f3:00:70|88
1616403098|00:d0:c9:f3:00:70|90
1616403098|c0:d3:c0:31:98:67|91
1616403113|74:eb:80:81:b5:a6|92
1616403113|28:f0:76:14:84:f2|90
1616403113|98:49:14:cc:3a:20|90
1616403113|00:d0:c9:f3:00:70|89
1616403128|00:d0:c9:f3:00:70|88
1616403143|00:d0:c9:f3:00:70|90
1616403143|b0:e2:35:c1:0b:3d|56
1616403143|00:02:36:f0:05:07|91
1616403158|b0:e2:35:c1:0b:3d|64
1616403158|00:d0:c9:f3:00:70|88
1616403158|04:b4:29:e2:5d:23|74
1616403158|98:49:14:cc:3a:20|93
1616403173|00:d0:c9:f3:00:70|88
1616403173|b0:e2:35:c1:0b:3d|64
1616403188|00:d0:c9:f3:00:70|88
1616403203|3c:bb:fd:3a:b7:31|93
1616403203|00:d0:c9:f3:00:70|89
1616403218|00:d0:c9:f3:00:70|89
1616403218|3c:bb:fd:3a:b7:31|93
1616403233|00:d0:c9:f3:00:70|88
1616403248|00:d0:c9:f3:00:70|91
1616403263|00:d0:c9:f3:00:70|90
1616403278|00:d0:c9:f3:00:70|88
1616403293|3c:57:6c:59:7a:3d|90
1616403293|00:d0:c9:f3:00:70|89
1616403308|00:d0:c9:f3:00:70|91
1616403308|3c:57:6c:59:7a:3d|90
1616403323|00:d0:c9:f3:00:70|87
1616403338|00:d0:c9:f3:00:70|90
1616403353|00:d0:c9:f3:00:70|91
1616403368|a0:2c:50:1a:fa:32|92
1616403368|00:d0:c9:f3:00:70|90
1616403383|00:d0:c9:f3:00:70|88
1616403383|a0:2c:50:1a:fa:32|92
1616403398|00:d0:c9:f3:00:70|90
1616403413|28:f0:76:14:84:f2|92
1616403413|00:d0:c9:f3:00:70|89
1616403428|00:d0:c9:f3:00:70|89
1616403428|28:f0:76:14:84:f2|92
1616403443|00:d0:c9:f3:00:70|90
1616403458|00:d0:c9:f3:00:70|90
1616403473|28:f0:76:14:84:f2|89
1616403473|00:d0:c9:f3:00:70|89
1616403488|00:d0:c9:f3:00:70|91
1616403488|28:f0:76:14:84:f2|89
1616403503|00:d0:c9:f3:00:70|91
1616403518|00:d0:c9:f3:00:70|90
1616403518|c0:d3:c0:31:98:67|92
1616403533|00:d0:c9:f3:00:70|89
1616403548|00:d0:c9:f3:00:70|91
1616403563|04:b4:29:e2:5d:23|73
1616403563|00:d0:c9:f3:00:70|88
1616403578|00:d0:c9:f3:00:70|90
1616403578|04:b4:29:e2:5d:23|73
1616403593|28:f0:76:14:84:f2|93
1616403593|00:d0:c9:f3:00:70|89
1616403608|00:d0:c9:f3:00:70|90
1616403608|28:f0:76:14:84:f2|93
1616403623|00:d0:c9:f3:00:70|89
1616403638|00:d0:c9:f3:00:70|89
1616403653|00:d0:c9:f3:00:70|88
1616403668|00:d0:c9:f3:00:70|89
1616403683|00:d0:c9:f3:00:70|89
1616403698|00:d0:c9:f3:00:70|88
1616403713|28:f0:76:14:84:f2|92
1616403713|00:d0:c9:f3:00:70|91
1616403728|00:d0:c9:f3:00:70|89
1616403728|28:f0:76:14:84:f2|92
1616403743|00:d0:c9:f3:00:70|87
1616403758|00:d0:c9:f3:00:70|87
1616403773|00:d0:c9:f3:00:70|90
1616403788|c0:d3:c0:31:98:67|94
1616403788|00:d0:c9:f3:00:70|89
1616403803|00:d0:c9:f3:00:70|90
1616403803|c0:d3:c0:31:98:67|94
1616403818|00:d0:c9:f3:00:70|87
1616403833|00:d0:c9:f3:00:70|90
1616403848|00:d0:c9:f3:00:70|89
1616403863|b0:52:16:72:c2:d1|93
1616403863|00:d0:c9:f3:00:70|88
1616403878|c8:d7:b0:ce:31:2c|91
1616403878|00:d0:c9:f3:00:70|87
1616403878|b0:52:16:72:c2:d1|93
1616403893|00:d0:c9:f3:00:70|90
1616403893|c8:d7:b0:ce:31:2c|91
1616403908|00:d0:c9:f3:00:70|90
1616403923|00:d0:c9:f3:00:70|89
1616403938|00:d0:c9:f3:00:70|91
1616403953|28:f0:76:14:84:f2|90
1616403953|00:d0:c9:f3:00:70|89
1616403968|00:d0:c9:f3:00:70|89
1616403968|28:f0:76:14:84:f2|90
1616403983|00:d0:c9:f3:00:70|88
1616403998|00:d0:c9:f3:00:70|91
1616404013|28:f0:76:14:84:f2|90
1616404013|d4:d2:52:9e:83:b5|93
1616404013|00:d0:c9:f3:00:70|88
1616404028|00:d0:c9:f3:00:70|88
1616404028|28:f0:76:14:84:f2|90
1616404043|3c:57:6c:dc:c0:c3|92
1616404043|00:d0:c9:f3:00:70|87
